"ego","seq","period","period_start","period_end","ego_period_rank","mom_period_rank","degree","vcount","betweenness","density","strength","sex","mom","birthdate","firstseen","disappeared","lastsession","dengrad","clan","longevity_days","age_at_last_seen","rs_days","birthyear","ARS","rank_level"
"adon",2,"postgrad","2001-10-08","2002-02-23",1,1,14,14,346,0.208791208791209,371.8752,"f","mrph","2001-03-20","2001-05-22",NA,"2012-12-21","2001-10-08","talek",NA,11.76,0.00339192106074622,"2001",1.23805118717237,"high"
"adon",3,"adult","2003-03-20","2003-08-05",1,1,10,10,32,0.422222222222222,91.3495,"f","mrph","2001-03-20","2001-05-22",NA,"2012-12-21","2001-10-08","talek",NA,11.76,0.00339192106074622,"2001",1.23805118717237,"high"
"agp",1,"cd","1991-12-27","1992-07-17",0.2,0.2,9,9,54,0.0833333333333333,197.0104,"m","ot","1991-11-06","1991-12-27",1995,"1996-06-12","1992-07-18","talek",1362,4.6,NA,"1991",NA,"mid"
"agp",2,"postgrad","1992-07-18","1993-02-06",0.22,0.22,6,6,6,0.333333333333333,152.6082,"m","ot","1991-11-06","1991-12-27",1995,"1996-06-12","1992-07-18","talek",1362,4.6,NA,"1991",NA,"mid"
"agp",3,"adult","1993-11-06","1994-05-27",0.17,0.17,1,1,0,NA,17.4286,"m","ot","1991-11-06","1991-12-27",1995,"1996-06-12","1992-07-18","talek",1362,4.6,NA,"1991",NA,"mid"
"amar",1,"cd","1995-01-31","1995-10-23",-0.11,-0.11,18,18,407,0.34640522875817,341.2778,"f","ua","1995-01-25","1995-01-31",2003,"2003-09-19","1995-10-24","talek",3159,8.65,0.00357142857142857,"1995",1.30357142857143,"mid"
"amar",2,"postgrad","1995-10-24","1996-07-15",-0.19,-0.19,10,10,55,0.2,271.6764,"f","ua","1995-01-25","1995-01-31",2003,"2003-09-19","1995-10-24","talek",3159,8.65,0.00357142857142857,"1995",1.30357142857143,"mid"
"amar",3,"adult","1997-01-25","1997-10-16",-0.36,-0.36,20,20,132,0.636842105263158,868.8379,"f","ua","1995-01-25","1995-01-31",2003,"2003-09-19","1995-10-24","talek",3159,8.65,0.00357142857142857,"1995",1.30357142857143,"low"
"andr",1,"cd","2002-04-26","2002-11-09",1,1,9,9,0,0.222222222222222,396.3576,"m","mrph","2002-03-08","2002-04-26",2002,"2002-12-18","2002-11-10","talek",285,0.78,NA,"2002",NA,"high"
"andr",2,"postgrad","2002-11-10","2003-05-26",1,1,2,2,18,0,46.75,"m","mrph","2002-03-08","2002-04-26",2002,"2002-12-18","2002-11-10","talek",285,0.78,NA,"2002",NA,"high"
"ani",1,"cd","1999-12-05","2000-07-26",-0.58,-0.58,18,18,146,0.339869281045752,706.2644,"f","bail","1999-11-17","1999-12-05",2001,"2001-05-11","2000-07-27","talek",541,1.48,NA,"1999",NA,"low"
"ani",2,"postgrad","2000-07-27","2001-03-18",-0.65,-0.65,5,5,65,0.5,217.381,"f","bail","1999-11-17","1999-12-05",2001,"2001-05-11","2000-07-27","talek",541,1.48,NA,"1999",NA,"low"
"arg",1,"cd","2005-12-21","2006-09-08",-0.38,-0.38,4,4,0,0.166666666666667,201.7333,"f","yog","2005-11-25","2005-12-21",2014,"2012-12-21","2006-09-09","talek",3050,7.08,0.00533130236100533,"2005",1.94592536176695,"low"
"arg",2,"postgrad","2006-09-09","2007-05-28",-0.53,-0.53,3,3,2,0.333333333333333,41.4643,"f","yog","2005-11-25","2005-12-21",2014,"2012-12-21","2006-09-09","talek",3050,7.08,0.00533130236100533,"2005",1.94592536176695,"low"
"arg",3,"adult","2007-11-25","2008-08-12",-0.5,-0.5,6,6,2,0.333333333333333,101.3659,"f","yog","2005-11-25","2005-12-21",2014,"2012-12-21","2006-09-09","talek",3050,7.08,0.00533130236100533,"2005",1.94592536176695,"low"
"arlo",1,"cd","2001-01-14","2001-08-17",-0.65,-0.65,2,2,0,0,30.6111,"m","bail","2000-12-01","2001-01-14",2001,"2001-11-13","2001-08-18","talek",347,0.95,NA,"2000",NA,"low"
"arse",1,"cd","1995-05-06","1995-11-28",1,1,21,21,75,0.366666666666667,400.4931,"f","bsh","1995-03-22","1995-05-06",1996,"1996-08-09","1995-11-29","talek",506,1.39,NA,"1995",NA,"high"
"arse",2,"postgrad","1995-11-29","1996-06-22",1,1,6,6,65,0.133333333333333,67.7622,"f","bsh","1995-03-22","1995-05-06",1996,"1996-08-09","1995-11-29","talek",506,1.39,NA,"1995",NA,"high"
"art",1,"cd","2000-05-30","2000-09-29",1,1,12,12,89,0.257575757575758,309.7878,"f","mrph","2000-03-24","2000-05-30",2014,"2012-12-30","2000-09-30","talek",5033,12.78,0.0029818378964489,"2000",1.08837083220385,"high"
"art",2,"postgrad","2000-09-30","2001-01-30",1,1,3,3,61,0.333333333333333,87.1818,"f","mrph","2000-03-24","2000-05-30",2014,"2012-12-30","2000-09-30","talek",5033,12.78,0.0029818378964489,"2000",1.08837083220385,"high"
"art",3,"adult","2002-03-24","2002-07-24",1,1,9,9,135,0.277777777777778,112.3085,"f","mrph","2000-03-24","2000-05-30",2014,"2012-12-30","2000-09-30","talek",5033,12.78,0.0029818378964489,"2000",1.08837083220385,"high"
"ath",1,"cd","1999-01-17","1999-07-18",0.91,0.91,7,7,13,0.19047619047619,114.7289,"f","mrph","1998-11-20","1999-01-17",2004,"2004-03-31","1999-07-19","talek",1958,5.36,0.00359066427289048,"1998",1.31059245960503,"high"
"ath",2,"postgrad","1999-07-19","2000-01-17",1,1,9,9,53,0.25,198.7485,"f","mrph","1998-11-20","1999-01-17",2004,"2004-03-31","1999-07-19","talek",1958,5.36,0.00359066427289048,"1998",1.31059245960503,"high"
"ath",3,"adult","2000-11-20","2001-05-20",1,1,7,7,140,0.0476190476190476,125.4631,"f","mrph","1998-11-20","1999-01-17",2004,"2004-03-31","1999-07-19","talek",1958,5.36,0.00359066427289048,"1998",1.31059245960503,"high"
"bab",1,"cd","2004-12-03","2005-09-25",-0.25,-0.25,9,9,58,0.472222222222222,395.1951,"f","mp","2004-10-30","2004-12-03",NA,"2012-12-06","2005-09-26","talek",NA,8.11,0.00267022696929239,"2004",0.974632843791722,"mid"
"bab",2,"postgrad","2005-09-26","2006-07-19",-0.13,-0.13,10,10,172,0.311111111111111,323.5107,"f","mp","2004-10-30","2004-12-03",NA,"2012-12-06","2005-09-26","talek",NA,8.11,0.00267022696929239,"2004",0.974632843791722,"mid"
"bab",3,"adult","2006-10-30","2007-08-22",-0.18,-0.18,7,7,4,0.19047619047619,128.8827,"f","mp","2004-10-30","2004-12-03",NA,"2012-12-06","2005-09-26","talek",NA,8.11,0.00267022696929239,"2004",0.974632843791722,"mid"
"bacc",1,"cd","2000-05-30","2000-09-29",1,1,14,14,8,0.164835164835165,494.6185,"m","mrph","2000-03-24","2000-05-30",2003,"2003-10-06","2000-09-30","talek",1291,3.54,NA,"2000",NA,"high"
"bacc",2,"postgrad","2000-09-30","2001-01-30",1,1,5,5,241,0.3,56.475,"m","mrph","2000-03-24","2000-05-30",2003,"2003-10-06","2000-09-30","talek",1291,3.54,NA,"2000",NA,"high"
"bacc",3,"adult","2002-03-24","2002-07-24",1,1,4,4,1,0.166666666666667,86.2,"m","mrph","2000-03-24","2000-05-30",2003,"2003-10-06","2000-09-30","talek",1291,3.54,NA,"2000",NA,"high"
"bail",1,"cd","1992-02-21","1992-09-22",0.07,0.07,9,9,244,0.111111111111111,128.2267,"f","ua","1992-01-04","1992-02-21",2007,"2007-06-12","1992-09-23","talek",5638,15.45,0.00392927308447937,"1992",1.43418467583497,"mid"
"bail",2,"postgrad","1992-09-23","1993-04-25",0.11,0.11,14,14,25,0.450549450549451,323.8693,"f","ua","1992-01-04","1992-02-21",2007,"2007-06-12","1992-09-23","talek",5638,15.45,0.00392927308447937,"1992",1.43418467583497,"mid"
"bail",3,"adult","1994-01-04","1994-08-05",0.08,0.08,9,9,53,0.222222222222222,251.0424,"f","ua","1992-01-04","1992-02-21",2007,"2007-06-12","1992-09-23","talek",5638,15.45,0.00392927308447937,"1992",1.43418467583497,"mid"
"baj",1,"cd","1993-02-08","1993-12-31",0.78,0.78,13,13,26,0.448717948717949,137.8048,"m","bb","1993-01-01","1993-02-08",1996,"1996-11-18","1994-01-01","talek",1417,3.88,NA,"1993",NA,"high"
"baj",2,"postgrad","1994-01-01","1994-11-23",0.75,0.75,8,8,100,0.357142857142857,97.3516,"m","bb","1993-01-01","1993-02-08",1996,"1996-11-18","1994-01-01","talek",1417,3.88,NA,"1993",NA,"high"
"baj",3,"adult","1995-01-01","1995-11-23",0.78,0.78,8,8,0,0.678571428571429,202.4772,"m","bb","1993-01-01","1993-02-08",1996,"1996-11-18","1994-01-01","talek",1417,3.88,NA,"1993",NA,"high"
"bal",1,"cd","1993-02-08","1994-03-18",0.75,0.75,16,16,16,0.508333333333333,222.9029,"m","bb","1993-01-01","1993-02-08",1997,"1997-08-03","1994-03-19","talek",1675,4.59,NA,"1993",NA,"high"
"bal",2,"postgrad","1994-03-19","1995-04-26",0.78,0.78,11,11,9,0.527272727272727,217.1511,"m","bb","1993-01-01","1993-02-08",1997,"1997-08-03","1994-03-19","talek",1675,4.59,NA,"1993",NA,"high"
"bal",3,"adult","1995-01-01","1996-02-08",0.63,0.63,8,8,0,0.5,324.6735,"m","bb","1993-01-01","1993-02-08",1997,"1997-08-03","1994-03-19","talek",1675,4.59,NA,"1993",NA,"high"
"bass",1,"cd","2000-07-23","2001-03-17",-0.8,-0.8,11,11,319,0.436363636363636,115.0707,"f","amar","2000-06-25","2000-07-23",2001,"2001-06-22","2001-03-18","talek",363,0.99,NA,"2000",NA,"low"
"bb",1,"cd","1989-08-11","1990-03-12",1,1,22,22,69,0.398268398268398,281.6487,"f","bsh","1989-07-13","1989-08-11",1998,"1998-12-29","1990-03-13","talek",3456,9.47,0.00475812846946868,"1989",1.73671689135607,"high"
"bb",2,"postgrad","1990-03-13","1990-10-12",1,1,19,19,200,0.333333333333333,269.3835,"f","bsh","1989-07-13","1989-08-11",1998,"1998-12-29","1990-03-13","talek",3456,9.47,0.00475812846946868,"1989",1.73671689135607,"high"
"bb",3,"adult","1991-07-13","1992-02-11",1,1,3,3,20,0.333333333333333,35.1601,"f","bsh","1989-07-13","1989-08-11",1998,"1998-12-29","1990-03-13","talek",3456,9.47,0.00475812846946868,"1989",1.73671689135607,"high"
"bern",1,"cd","1992-12-26","1993-06-10",-1,-1,16,16,62,0.458333333333333,249.294,"f","lg","1992-10-01","1992-12-26",2000,"2000-11-11","1993-06-11","talek",2895,8.12,0.00421348314606742,"1992",1.53792134831461,"low"
"bern",2,"postgrad","1993-06-11","1993-11-24",-1,-1,8,8,5,0.214285714285714,135.5133,"f","lg","1992-10-01","1992-12-26",2000,"2000-11-11","1993-06-11","talek",2895,8.12,0.00421348314606742,"1992",1.53792134831461,"low"
"bern",3,"adult","1994-10-01","1995-03-16",-0.93,-0.93,12,12,53,0.287878787878788,357.2271,"f","lg","1992-10-01","1992-12-26",2000,"2000-11-11","1993-06-11","talek",2895,8.12,0.00421348314606742,"1992",1.53792134831461,"low"
"bg",1,"cd","1990-10-19","1991-08-27",0.67,0.67,4,4,18,0.333333333333333,49.7107,"m","dj","1990-10-07","1990-10-19",1991,"1991-11-11","1991-08-28","talek",400,1.1,NA,"1990",NA,"high"
"bgl",1,"cd","2004-10-08","2005-04-12",0.63,0.63,13,13,0,0.423076923076923,304.1297,"m","adon","2004-07-21","2004-10-08",2007,"2012-02-03","2005-04-13","talek",1026,7.54,NA,"2004",NA,"high"
"bgl",2,"postgrad","2005-04-13","2005-10-16",0.63,0.63,9,9,32,0.277777777777778,99.132,"m","adon","2004-07-21","2004-10-08",2007,"2012-02-03","2005-04-13","talek",1026,7.54,NA,"2004",NA,"high"
"bgl",3,"adult","2006-07-21","2007-01-23",0.41,0.41,4,4,0,0.166666666666667,62.4019,"m","adon","2004-07-21","2004-10-08",2007,"2012-02-03","2005-04-13","talek",1026,7.54,NA,"2004",NA,"high"
"bil",1,"cd","1993-10-13","1994-04-24",-0.67,-0.67,4,4,0,0,81.1154,"f","es","1993-09-07","1993-10-13",1995,"1995-04-09","1994-04-25","talek",577,1.59,NA,"1993",NA,"low"
"bil",2,"postgrad","1994-04-25","1994-11-04",-0.67,-0.67,7,7,17,0.238095238095238,153.167,"f","es","1993-09-07","1993-10-13",1995,"1995-04-09","1994-04-25","talek",577,1.59,NA,"1993",NA,"low"
"bm",1,"cd","1989-08-12","1990-04-15",-0.56,-0.56,21,21,55,0.419047619047619,323.982,"f","23s","1989-07-17","1989-08-12",2001,"2001-01-09","1990-04-16","talek",4194,11.49,0.00168563000421408,"1989",0.615254951538137,"low"
"bm",2,"postgrad","1990-04-16","1990-12-18",-0.56,-0.56,16,16,16,0.275,267.9634,"f","23s","1989-07-17","1989-08-12",2001,"2001-01-09","1990-04-16","talek",4194,11.49,0.00168563000421408,"1989",0.615254951538137,"low"
"boa",1,"cd","2001-08-18","2002-01-22",0.33,0.33,21,21,154,0.276190476190476,1078.4089,"m","ali","2001-07-19","2001-08-18",2008,"2005-04-27","2002-01-23","talek",2474,3.78,NA,"2001",NA,"high"
"boa",2,"postgrad","2002-01-23","2002-06-29",0.33,0.33,10,10,194,0.355555555555556,231.1846,"m","ali","2001-07-19","2001-08-18",2008,"2005-04-27","2002-01-23","talek",2474,3.78,NA,"2001",NA,"high"
"boa",3,"adult","2003-07-19","2003-12-23",0.08,0.08,8,8,0,0.357142857142857,104.8246,"m","ali","2001-07-19","2001-08-18",2008,"2005-04-27","2002-01-23","talek",2474,3.78,NA,"2001",NA,"mid"
"brn",1,"cd","1998-12-17","1999-06-19",-0.27,-0.27,5,5,25,0.2,95.0615,"m","ua","1998-11-20","1998-12-17",2001,"2012-11-12","1999-06-20","talek",931,13.99,NA,"1998",NA,"mid"
"brn",2,"postgrad","1999-06-20","1999-12-21",-0.27,-0.27,8,8,68,0.214285714285714,98.8327,"m","ua","1998-11-20","1998-12-17",2001,"2012-11-12","1999-06-20","talek",931,13.99,NA,"1998",NA,"mid"
"brn",3,"adult","2000-11-20","2001-05-22",-0.53,-0.53,4,4,0,0,199,"m","ua","1998-11-20","1998-12-17",2001,"2012-11-12","1999-06-20","talek",931,13.99,NA,"1998",NA,"low"
"bsp",1,"cd","1999-05-01","1999-12-17",0.36,0.36,18,18,156,0.287581699346405,442.1687,"f","mp","1999-04-24","1999-05-01",2001,"2001-05-08","1999-12-18","talek",745,2.04,NA,"1999",NA,"high"
"bsp",2,"postgrad","1999-12-18","2000-08-04",0.33,0.33,28,28,134,0.283068783068783,968.9506,"f","mp","1999-04-24","1999-05-01",2001,"2001-05-08","1999-12-18","talek",745,2.04,NA,"1999",NA,"high"
"bud",1,"cd","1989-08-11","1990-03-12",1,1,26,26,185,0.292307692307692,397.6662,"m","bsh","1989-07-13","1989-08-11",1992,"1994-06-22","1990-03-13","talek",1101,4.95,NA,"1989",NA,"high"
"bud",2,"postgrad","1990-03-13","1990-10-12",1,1,16,16,26,0.341666666666667,308.1899,"m","bsh","1989-07-13","1989-08-11",1992,"1994-06-22","1990-03-13","talek",1101,4.95,NA,"1989",NA,"high"
"cam",1,"cd","1998-12-21","1999-08-04",0.18,0.18,8,8,265,0.392857142857143,202.555,"f","jj","1998-11-21","1998-12-21",2006,"2006-10-23","1999-08-05","talek",2893,7.93,0.00295639320029564,"1998",1.07908351810791,"mid"
"cam",2,"postgrad","1999-08-05","2000-03-18",0.08,0.08,13,13,69,0.230769230769231,300.6582,"f","jj","1998-11-21","1998-12-21",2006,"2006-10-23","1999-08-05","talek",2893,7.93,0.00295639320029564,"1998",1.07908351810791,"mid"
"cam",3,"adult","2000-11-21","2001-07-04",0.2,0.2,6,6,0,0.266666666666667,179.607,"f","jj","1998-11-21","1998-12-21",2006,"2006-10-23","1999-08-05","talek",2893,7.93,0.00295639320029564,"1998",1.07908351810791,"mid"
"cart",2,"postgrad","2006-09-14","2007-04-28",-0.65,-0.65,1,1,0,NA,36,"f","nav","2005-12-07","2006-01-30",NA,"2012-12-28","2006-09-14","talek",NA,7.06,0.00464396284829721,"2005",1.69504643962848,"low"
"cart",3,"adult","2007-12-07","2008-07-20",-0.75,-0.75,5,5,13,0.5,55.4175,"f","nav","2005-12-07","2006-01-30",NA,"2012-12-28","2006-09-14","talek",NA,7.06,0.00464396284829721,"2005",1.69504643962848,"low"
"cen",1,"cd","2008-04-14","2009-03-22",0.71,0.71,9,9,118,0.25,118.7388,"f","pan","2008-03-01","2008-04-14",2012,"2012-05-18","2009-03-23","talek",1539,4.22,0.00782778864970646,"2008",2.85714285714286,"high"
"cen",2,"postgrad","2009-03-23","2010-02-28",0.7,0.7,11,11,473,0.218181818181818,166.0146,"f","pan","2008-03-01","2008-04-14",2012,"2012-05-18","2009-03-23","talek",1539,4.22,0.00782778864970646,"2008",2.85714285714286,"high"
"cen",3,"adult","2010-03-01","2011-02-06",0.7,0.7,36,36,778,0.258730158730159,588.1699,"f","pan","2008-03-01","2008-04-14",2012,"2012-05-18","2009-03-23","talek",1539,4.22,0.00782778864970646,"2008",2.85714285714286,"high"
"chap",1,"cd","2005-02-06","2006-10-07",-0.13,-0.13,3,3,3,0.666666666666667,95.9382,"m","mp","2005-12-05","2005-02-06",2009,"2009-01-24","2006-10-08","talek",1146,3.14,NA,"2005",NA,"mid"
"chap",2,"postgrad","2006-10-08","2008-06-07",-0.13,-0.13,5,5,17,0.2,96.0458,"m","mp","2005-12-05","2005-02-06",2009,"2009-01-24","2006-10-08","talek",1146,3.14,NA,"2005",NA,"mid"
"chap",3,"adult","2007-12-05","2009-08-04",-0.14,-0.14,12,12,26,0.409090909090909,246.6951,"m","mp","2005-12-05","2005-02-06",2009,"2009-01-24","2006-10-08","talek",1146,3.14,NA,"2005",NA,"mid"
"chob",1,"cd","1999-12-30","2001-03-28",-1,-1,25,25,98,0.41,630.7389,"m","par","1999-11-30","1999-12-30",2001,"2002-09-21","2001-03-29","talek",620,2.81,NA,"1999",NA,"low"
"chob",2,"postgrad","2001-03-29","2002-06-26",-1,-1,13,13,2,0.346153846153846,737.8853,"m","par","1999-11-30","1999-12-30",2001,"2002-09-21","2001-03-29","talek",620,2.81,NA,"1999",NA,"low"
"chob",3,"adult","2001-11-30","2003-02-26",-1,-1,4,4,0,0.166666666666667,281,"m","par","1999-11-30","1999-12-30",2001,"2002-09-21","2001-03-29","talek",620,2.81,NA,"1999",NA,"low"
"chw",1,"cd","1999-04-16","1999-09-23",0.82,0.82,22,22,89,0.281385281385281,533.3605,"f","sein","1999-03-19","1999-04-16",2013,"2012-06-26","1999-09-24","talek",5242,13.28,0.000852514919011083,"1999",0.311167945439045,"high"
"chw",2,"postgrad","1999-09-24","2000-03-02",0.92,0.92,6,6,61,0.0666666666666667,146.2691,"f","sein","1999-03-19","1999-04-16",2013,"2012-06-26","1999-09-24","talek",5242,13.28,0.000852514919011083,"1999",0.311167945439045,"high"
"chw",3,"adult","2001-03-19","2001-08-25",0.76,0.76,10,10,301,0.2,199.5198,"f","sein","1999-03-19","1999-04-16",2013,"2012-06-26","1999-09-24","talek",5242,13.28,0.000852514919011083,"1999",0.311167945439045,"high"
"chy",1,"cd","1989-11-21","1990-04-23",0.67,0.67,9,9,10,0.361111111111111,239.2462,"m","coch","1989-10-14","1989-11-21",1993,"1997-03-05","1990-04-24","talek",1385,7.39,NA,"1989",NA,"high"
"chy",2,"postgrad","1990-04-24","1990-09-24",0.67,0.67,15,15,141,0.323809523809524,171.4926,"m","coch","1989-10-14","1989-11-21",1993,"1997-03-05","1990-04-24","talek",1385,7.39,NA,"1989",NA,"high"
"chy",3,"adult","1991-10-14","1992-03-15",0.47,0.47,3,3,34,0,210.4333,"m","coch","1989-10-14","1989-11-21",1993,"1997-03-05","1990-04-24","talek",1385,7.39,NA,"1989",NA,"high"
"cnet",1,"cd","2001-09-14","2002-08-02",0.67,0.67,11,11,377,0.181818181818182,309.2668,"m","hem","2001-08-12","2001-09-14",2007,"2008-09-02","2002-08-03","talek",2037,7.06,NA,"2001",NA,"high"
"cnet",2,"postgrad","2002-08-03","2003-06-21",0.69,0.69,9,9,4,0.555555555555556,179.4528,"m","hem","2001-08-12","2001-09-14",2007,"2008-09-02","2002-08-03","talek",2037,7.06,NA,"2001",NA,"high"
"cnet",3,"adult","2003-08-12","2004-06-29",0.56,0.56,2,2,11,0,8.6857,"m","hem","2001-08-12","2001-09-14",2007,"2008-09-02","2002-08-03","talek",2037,7.06,NA,"2001",NA,"high"
"cnti",1,"cd","2002-06-18","2003-05-28",-0.38,-0.38,19,19,551,0.385964912280702,372.7435,"f","hml","2002-05-15","2002-06-18",2008,"2011-05-30","2003-05-29","talek",2198,9.05,NA,"2002",NA,"low"
"cnti",2,"postgrad","2003-05-29","2004-05-07",-0.56,-0.56,3,3,384,0.333333333333333,158.8571,"f","hml","2002-05-15","2002-06-18",2008,"2011-05-30","2003-05-29","talek",2198,9.05,NA,"2002",NA,"low"
"cnti",3,"adult","2004-05-15","2005-04-23",-0.45,-0.45,4,4,0,0.5,42.9961,"f","hml","2002-05-15","2002-06-18",2008,"2011-05-30","2003-05-29","talek",2198,9.05,NA,"2002",NA,"low"
"coo",1,"cd","1999-01-05","1999-07-21",0.64,0.64,13,13,684,0.192307692307692,175.5415,"f","kip","1998-12-03","1999-01-05",2005,"2005-12-07","1999-07-22","talek",2561,7.02,0.00153022188217292,"1998",0.558530986993114,"high"
"coo",2,"postgrad","1999-07-22","2000-02-04",0.75,0.75,6,6,0,0.2,375.9525,"f","kip","1998-12-03","1999-01-05",2005,"2005-12-07","1999-07-22","talek",2561,7.02,0.00153022188217292,"1998",0.558530986993114,"high"
"coo",3,"adult","2000-12-03","2001-06-17",0.75,0.75,6,6,60,0.533333333333333,125.6144,"f","kip","1998-12-03","1999-01-05",2005,"2005-12-07","1999-07-22","talek",2561,7.02,0.00153022188217292,"1998",0.558530986993114,"high"
"cpa",1,"cd","1998-12-01","1999-06-19",-0.09,-0.09,6,6,17,0.4,178.4222,"m","sx","1998-11-18","1998-12-01",2002,"2002-02-09","1999-06-20","talek",1179,3.23,NA,"1998",NA,"mid"
"cpa",2,"postgrad","1999-06-20","2000-01-06",-0.33,-0.33,15,15,48,0.295238095238095,403.2067,"m","sx","1998-11-18","1998-12-01",2002,"2002-02-09","1999-06-20","talek",1179,3.23,NA,"1998",NA,"mid"
"cpa",3,"adult","2000-11-18","2001-06-05",-0.33,-0.33,6,6,71,0.2,165.6321,"m","sx","1998-11-18","1998-12-01",2002,"2002-02-09","1999-06-20","talek",1179,3.23,NA,"1998",NA,"mid"
"cr",1,"cd","1993-09-09","1994-04-01",0.17,0.17,4,4,9,0.166666666666667,32.6735,"f","ot","1993-08-15","1993-09-09",2002,"2002-03-03","1994-04-02","talek",3121,8.55,0.00420168067226891,"1993",1.53361344537815,"mid"
"cr",2,"postgrad","1994-04-02","1994-10-23",0.17,0.17,7,7,23,0.238095238095238,123.5714,"f","ot","1993-08-15","1993-09-09",2002,"2002-03-03","1994-04-02","talek",3121,8.55,0.00420168067226891,"1993",1.53361344537815,"mid"
"cr",3,"adult","1995-08-15","1996-03-06",-0.04,-0.04,8,8,6,0.25,171.2889,"f","ot","1993-08-15","1993-09-09",2002,"2002-03-03","1994-04-02","talek",3121,8.55,0.00420168067226891,"1993",1.53361344537815,"mid"
"csac",1,"cd","2003-07-08","2003-12-01",0.23,0.23,12,12,56,0.272727272727273,157.0411,"m","csn","2003-05-01","2003-07-08",2005,"2005-01-29","2003-12-02","talek",639,1.75,NA,"2003",NA,"mid"
"csac",2,"postgrad","2003-12-02","2004-04-26",0.33,0.33,7,7,3,0.333333333333333,151.7381,"m","csn","2003-05-01","2003-07-08",2005,"2005-01-29","2003-12-02","talek",639,1.75,NA,"2003",NA,"high"
"ctz",1,"cd","2004-07-22","2005-05-23",0.13,0.13,12,12,137,0.484848484848485,190.5697,"f","ali","2004-06-26","2004-07-22",2006,"2006-05-28","2005-05-24","talek",701,1.92,NA,"2004",NA,"mid"
"ctz",2,"postgrad","2005-05-24","2006-03-25",0.13,0.13,20,20,141,0.363157894736842,314.7553,"f","ali","2004-06-26","2004-07-22",2006,"2006-05-28","2005-05-24","talek",701,1.92,NA,"2004",NA,"mid"
"cuj",1,"cd","1997-07-15","1998-03-17",0.58,0.58,4,4,8,0.333333333333333,130.0817,"m","kip","1997-07-09","1997-07-15",2001,"2001-06-03","1998-03-18","talek",1425,3.9,NA,"1997",NA,"high"
"cuj",2,"postgrad","1998-03-18","1998-11-18",0.58,0.58,7,7,74,0.142857142857143,143.2551,"m","kip","1997-07-09","1997-07-15",2001,"2001-06-03","1998-03-18","talek",1425,3.9,NA,"1997",NA,"high"
"cuj",3,"adult","1999-07-09","2000-03-10",0.75,0.75,8,8,4,0.142857142857143,171.3427,"m","kip","1997-07-09","1997-07-15",2001,"2001-06-03","1998-03-18","talek",1425,3.9,NA,"1997",NA,"high"
"dd",1,"cd","1994-08-14","1995-06-29",0.56,0.56,15,15,291,0.380952380952381,265.9947,"m","dj","1994-07-23","1994-08-14",2000,"2000-10-17","1995-06-30","talek",2278,6.24,NA,"1994",NA,"high"
"dd",2,"postgrad","1995-06-30","1996-05-14",0.48,0.48,14,14,115,0.428571428571429,269.6596,"m","dj","1994-07-23","1994-08-14",2000,"2000-10-17","1995-06-30","talek",2278,6.24,NA,"1994",NA,"high"
"dd",3,"adult","1996-07-23","1997-06-06",0.48,0.48,11,11,0,0.654545454545455,534.1217,"m","dj","1994-07-23","1994-08-14",2000,"2000-10-17","1995-06-30","talek",2278,6.24,NA,"1994",NA,"high"
"del",1,"cd","1998-12-11","1999-08-13",0.55,0.55,9,9,521,0.0277777777777778,195.4662,"m","wr","1998-11-10","1998-12-11",2000,"2000-11-19","1999-08-14","talek",733,2.03,NA,"1998",NA,"high"
"del",2,"postgrad","1999-08-14","2000-04-15",0.5,0.5,15,15,130,0.295238095238095,407.2028,"m","wr","1998-11-10","1998-12-11",2000,"2000-11-19","1999-08-14","talek",733,2.03,NA,"1998",NA,"high"
"del",3,"adult","2000-11-10","2001-07-12",0.4,0.4,2,2,0,1,42.5333,"m","wr","1998-11-10","1998-12-11",2000,"2000-11-19","1999-08-14","talek",733,2.03,NA,"1998",NA,"high"
"des",1,"cd","2004-06-07","2005-03-28",0,0,8,8,30,0.321428571428571,186.4254,"m","mali","2004-05-17","2004-06-07",2008,"2010-07-29","2005-03-29","talek",1395,6.2,NA,"2004",NA,"mid"
"des",2,"postgrad","2005-03-29","2006-01-17",0,0,24,24,122,0.358695652173913,329.9153,"m","mali","2004-05-17","2004-06-07",2008,"2010-07-29","2005-03-29","talek",1395,6.2,NA,"2004",NA,"mid"
"dfy",1,"cd","2002-08-07","2003-05-03",0.54,0.54,12,12,61,0.545454545454545,125.5174,"f","coo","2002-05-10","2002-08-07",2006,"2006-08-02","2003-05-04","talek",1545,4.23,0.00595238095238095,"2002",2.17261904761905,"high"
"dfy",2,"postgrad","2003-05-04","2004-01-28",0.33,0.33,7,7,608,0.142857142857143,106.5623,"f","coo","2002-05-10","2002-08-07",2006,"2006-08-02","2003-05-04","talek",1545,4.23,0.00595238095238095,"2002",2.17261904761905,"high"
"dg",1,"cd","1990-04-29","1991-01-02",0.33,0.33,16,16,44,0.425,278.4104,"m","ot","1990-03-22","1990-04-29",1992,"1992-10-06","1991-01-03","talek",929,2.55,NA,"1990",NA,"high"
"dg",2,"postgrad","1991-01-03","1991-09-08",0.33,0.33,4,4,22,0.333333333333333,86.4226,"m","ot","1990-03-22","1990-04-29",1992,"1992-10-06","1991-01-03","talek",929,2.55,NA,"1990",NA,"high"
"dg",3,"adult","1992-03-22","1992-11-24",0.2,0.2,5,5,4,0.4,272.2262,"m","ot","1990-03-22","1990-04-29",1992,"1992-10-06","1991-01-03","talek",929,2.55,NA,"1990",NA,"mid"
"dna",1,"cd","1997-01-25","1997-06-13",0.76,0.76,30,30,66,0.535632183908046,1108.0311,"m","gil","1996-12-23","1997-01-25",1999,"1999-12-09","1997-06-14","talek",988,2.96,NA,"1996",NA,"high"
"dna",2,"postgrad","1997-06-14","1997-10-31",0.76,0.76,24,24,99,0.394927536231884,597.4947,"m","gil","1996-12-23","1997-01-25",1999,"1999-12-09","1997-06-14","talek",988,2.96,NA,"1996",NA,"high"
"dna",3,"adult","1998-12-23","1999-05-11",0.75,0.75,7,7,124,0.285714285714286,138.5181,"m","gil","1996-12-23","1997-01-25",1999,"1999-12-09","1997-06-14","talek",988,2.96,NA,"1996",NA,"high"
"dyl",1,"cd","1997-12-16","1998-10-01",-0.5,-0.5,11,11,854,0.145454545454545,227.3587,"f","bail","1997-11-15","1997-12-16",1998,"1998-11-05","1998-10-02","talek",355,0.97,NA,"1997",NA,"low"
"dyl",2,"postgrad","1998-10-02","1999-07-18",-0.45,-0.45,1,1,0,NA,40.1429,"f","bail","1997-11-15","1997-12-16",1998,"1998-11-05","1998-10-02","talek",355,0.97,NA,"1997",NA,"low"
"fd",2,"postgrad","1994-04-13","1994-10-11",-0.67,-0.67,1,1,0,NA,20.6,"f","es","1993-09-07","1993-10-13",1994,"1994-05-23","1994-04-13","talek",258,0.71,NA,"1993",NA,"low"
"ffl",1,"cd","2003-08-06","2004-04-28",-0.23,-0.23,6,6,0,0.133333333333333,166.4277,"f","mp","2003-06-28","2003-08-06",NA,"2012-12-21","2004-04-29","talek",NA,9.49,0.00329877474081056,"2003",1.20405278039585,"mid"
"ffl",2,"postgrad","2004-04-29","2005-01-20",-0.25,-0.25,14,14,7,0.648351648351648,224.547,"f","mp","2003-06-28","2003-08-06",NA,"2012-12-21","2004-04-29","talek",NA,9.49,0.00329877474081056,"2003",1.20405278039585,"mid"
"ffl",3,"adult","2005-06-28","2006-03-20",-0.13,-0.13,11,11,19,0.309090909090909,201.284,"f","mp","2003-06-28","2003-08-06",NA,"2012-12-21","2004-04-29","talek",NA,9.49,0.00329877474081056,"2003",1.20405278039585,"mid"
"fg",1,"cd","1990-04-29","1991-01-02",0.33,0.33,19,19,8,0.263157894736842,396.4651,"f","ot","1990-03-22","1990-04-29",1991,"1991-03-13","1991-01-03","talek",358,0.98,NA,"1990",NA,"high"
"fg",2,"postgrad","1991-01-03","1991-09-08",0.33,0.33,5,5,19,0.2,201.6083,"f","ot","1990-03-22","1990-04-29",1991,"1991-03-13","1991-01-03","talek",358,0.98,NA,"1990",NA,"high"
"frr",1,"cd","2000-07-21","2001-04-11",0.2,0.2,18,18,13,0.405228758169935,363.6683,"m","jj","2000-06-25","2000-07-21",2001,"2001-12-09","2001-04-12","talek",532,1.46,NA,"2000",NA,"mid"
"frr",2,"postgrad","2001-04-12","2002-01-01",0.17,0.17,13,13,259,0.205128205128205,930.9699,"m","jj","2000-06-25","2000-07-21",2001,"2001-12-09","2001-04-12","talek",532,1.46,NA,"2000",NA,"mid"
"gdz",1,"cd","1999-01-05","1999-07-21",0.64,0.64,19,19,389,0.251461988304094,234.9617,"m","kip","1998-12-03","1999-01-05",2000,"2000-09-29","1999-07-22","talek",666,1.82,NA,"1998",NA,"high"
"gdz",2,"postgrad","1999-07-22","2000-02-04",0.75,0.75,4,4,0,0.833333333333333,98.5278,"m","kip","1998-12-03","1999-01-05",2000,"2000-09-29","1999-07-22","talek",666,1.82,NA,"1998",NA,"high"
"ger",1,"cd","1992-11-29","1993-06-07",0.44,0.44,5,5,25,0.8,18.2853,"f","coch","1992-11-07","1992-11-29",2005,"2005-06-02","1993-06-08","talek",4590,12.58,0.00319284802043423,"1992",1.16538952745849,"high"
"ger",2,"postgrad","1993-06-08","1993-12-15",0.44,0.44,11,11,71,0.327272727272727,93.4503,"f","coch","1992-11-07","1992-11-29",2005,"2005-06-02","1993-06-08","talek",4590,12.58,0.00319284802043423,"1992",1.16538952745849,"high"
"ger",3,"adult","1994-11-07","1995-05-16",0.48,0.48,11,11,100,0.363636363636364,218.0906,"f","coch","1992-11-07","1992-11-29",2005,"2005-06-02","1993-06-08","talek",4590,12.58,0.00319284802043423,"1992",1.16538952745849,"high"
"gil",1,"cd","1992-08-08","1993-03-09",1,1,22,22,179,0.393939393939394,498.0264,"f","bsh","1992-08-01","1992-08-08",1998,"2000-11-13","1993-03-10","talek",2277,8.29,0.00324976787372331,"1992",1.18616527390901,"high"
"gil",2,"postgrad","1993-03-10","1993-10-09",1,1,7,7,9,0.285714285714286,60.0559,"f","bsh","1992-08-01","1992-08-08",1998,"2000-11-13","1993-03-10","talek",2277,8.29,0.00324976787372331,"1992",1.18616527390901,"high"
"gil",3,"adult","1994-08-01","1995-03-02",1,1,28,28,135,0.330687830687831,511.5406,"f","bsh","1992-08-01","1992-08-08",1998,"2000-11-13","1993-03-10","talek",2277,8.29,0.00324976787372331,"1992",1.18616527390901,"high"
"gol",1,"cd","1991-07-20","1992-04-29",-0.73,-0.73,2,2,88,1,14.6752,"f","es","1991-07-20","1991-07-20",2001,"2001-03-15","1992-04-30","talek",3526,9.66,0.00445235975066785,"1991",1.62511130899377,"low"
"gol",2,"postgrad","1992-04-30","1993-02-08",-0.78,-0.78,14,14,129,0.307692307692308,349.3338,"f","es","1991-07-20","1991-07-20",2001,"2001-03-15","1992-04-30","talek",3526,9.66,0.00445235975066785,"1991",1.62511130899377,"low"
"gol",3,"adult","1993-07-20","1994-04-29",-0.67,-0.67,15,15,37,0.361904761904762,302.6811,"f","es","1991-07-20","1991-07-20",2001,"2001-03-15","1992-04-30","talek",3526,9.66,0.00445235975066785,"1991",1.62511130899377,"low"
"gonz",1,"cd","1996-10-03","1997-05-12",-0.76,-0.76,38,38,24,0.499288762446657,2021.1186,"m","hob","1996-09-06","1996-10-03",1999,"1999-03-20","1997-05-13","talek",925,2.53,NA,"1996",NA,"low"
"gonz",2,"postgrad","1997-05-13","1997-12-20",-0.76,-0.76,21,21,125,0.39047619047619,921.8249,"m","hob","1996-09-06","1996-10-03",1999,"1999-03-20","1997-05-13","talek",925,2.53,NA,"1996",NA,"low"
"gonz",3,"adult","1998-09-06","1999-04-15",-0.55,-0.55,7,7,0,0.428571428571429,242.8667,"m","hob","1996-09-06","1996-10-03",1999,"1999-03-20","1997-05-13","talek",925,2.53,NA,"1996",NA,"low"
"gui",1,"cd","1999-02-17","1999-10-25",-0.36,-0.36,11,11,320,0.2,162.0206,"f","amar","1999-02-12","1999-02-17",2003,"2003-02-14","1999-10-26","talek",1464,4.01,0.00578034682080925,"1999",2.10982658959538,"low"
"gui",2,"postgrad","1999-10-26","2000-07-02",-0.5,-0.5,15,15,154,0.257142857142857,349.2404,"f","amar","1999-02-12","1999-02-17",2003,"2003-02-14","1999-10-26","talek",1464,4.01,0.00578034682080925,"1999",2.10982658959538,"low"
"gui",3,"adult","2001-02-12","2001-10-19",-0.8,-0.8,9,9,83,0.333333333333333,204.8347,"f","amar","1999-02-12","1999-02-17",2003,"2003-02-14","1999-10-26","talek",1464,4.01,0.00578034682080925,"1999",2.10982658959538,"low"
"hem",1,"cd","1997-09-28","1998-07-06",0.67,0.67,4,4,72,0.5,203.1143,"f","who","1997-09-26","1997-09-28",2006,"2006-12-22","1998-07-07","talek",3374,9.24,0.00306435137895812,"1997",1.11848825331971,"high"
"hem",2,"postgrad","1998-07-07","1999-04-14",0.73,0.73,7,7,7,0.333333333333333,304.5696,"f","who","1997-09-26","1997-09-28",2006,"2006-12-22","1998-07-07","talek",3374,9.24,0.00306435137895812,"1997",1.11848825331971,"high"
"hem",3,"adult","1999-09-26","2000-07-03",0.83,0.83,15,15,188,0.333333333333333,439.6152,"f","who","1997-09-26","1997-09-28",2006,"2006-12-22","1998-07-07","talek",3374,9.24,0.00306435137895812,"1997",1.11848825331971,"high"
"her",1,"cd","1999-01-17","1999-07-18",0.91,0.91,5,5,66,0.3,100.0306,"m","mrph","1998-11-20","1999-01-17",2002,"2003-01-10","1999-07-19","talek",1345,4.14,NA,"1998",NA,"high"
"her",2,"postgrad","1999-07-19","2000-01-17",1,1,11,11,55,0.254545454545455,262.8493,"m","mrph","1998-11-20","1999-01-17",2002,"2003-01-10","1999-07-19","talek",1345,4.14,NA,"1998",NA,"high"
"her",3,"adult","2000-11-20","2001-05-20",1,1,6,6,53,0.0666666666666667,142.8447,"m","mrph","1998-11-20","1999-01-17",2002,"2003-01-10","1999-07-19","talek",1345,4.14,NA,"1998",NA,"high"
"hg",1,"cd","1992-10-23","1993-04-11",0.56,0.56,18,18,122,0.470588235294118,494.4827,"f","dj","1992-09-15","1992-10-23",2003,"2003-01-22","1993-04-12","talek",3781,10.36,0.00403406544150605,"1992",1.47243388614971,"high"
"hg",2,"postgrad","1993-04-12","1993-09-29",0.56,0.56,12,12,50,0.151515151515152,203.76,"f","dj","1992-09-15","1992-10-23",2003,"2003-01-22","1993-04-12","talek",3781,10.36,0.00403406544150605,"1992",1.47243388614971,"high"
"hg",3,"adult","1994-09-15","1995-03-04",0.56,0.56,13,13,69,0.333333333333333,182.7191,"f","dj","1992-09-15","1992-10-23",2003,"2003-01-22","1993-04-12","talek",3781,10.36,0.00403406544150605,"1992",1.47243388614971,"high"
"hk",2,"postgrad","1991-08-31","1992-04-30",-0.33,-0.33,1,1,0,NA,15.0769,"f","23s","1990-11-20","1990-12-30",1995,"1995-01-28","1991-08-31","talek",1520,4.19,0.0103092783505155,"1990",3.76288659793814,"mid"
"hk",3,"adult","1992-11-20","1993-07-20",-0.22,-0.22,15,15,0,0.59047619047619,282.675,"f","23s","1990-11-20","1990-12-30",1995,"1995-01-28","1991-08-31","talek",1520,4.19,0.0103092783505155,"1990",3.76288659793814,"mid"
"hml",1,"cd","1997-07-20","1997-11-22",0.04,0.04,6,6,2,0.533333333333333,172.0818,"f","ger","1997-06-01","1997-07-20",2012,"2012-10-01","1997-11-23","talek",5601,15.35,0.00184544405997693,"1997",0.67358708189158,"mid"
"hml",2,"postgrad","1997-11-23","1998-03-28",0,0,10,10,103,0.155555555555556,822.2299,"f","ger","1997-06-01","1997-07-20",2012,"2012-10-01","1997-11-23","talek",5601,15.35,0.00184544405997693,"1997",0.67358708189158,"mid"
"hml",3,"adult","1999-06-01","1999-10-04",0.09,0.09,12,12,11,0.378787878787879,244.0442,"f","ger","1997-06-01","1997-07-20",2012,"2012-10-01","1997-11-23","talek",5601,15.35,0.00184544405997693,"1997",0.67358708189158,"mid"
"hob",1,"cd","1991-07-20","1992-04-29",-0.73,-0.73,5,5,122,0.1,38.3144,"f","es","1991-07-20","1991-07-20",1999,"1999-05-06","1992-04-30","talek",2847,7.8,0.00314465408805031,"1991",1.14779874213836,"low"
"hob",2,"postgrad","1992-04-30","1993-02-08",-0.78,-0.78,9,9,23,0.25,217.3293,"f","es","1991-07-20","1991-07-20",1999,"1999-05-06","1992-04-30","talek",2847,7.8,0.00314465408805031,"1991",1.14779874213836,"low"
"hob",3,"adult","1993-07-20","1994-04-29",-0.67,-0.67,11,11,5,0.236363636363636,206.5446,"f","es","1991-07-20","1991-07-20",1999,"1999-05-06","1992-04-30","talek",2847,7.8,0.00314465408805031,"1991",1.14779874213836,"low"
"hon",1,"cd","2008-05-18","2008-12-02",-0.13,-0.13,4,4,65,0.166666666666667,29.5015,"f","mp","2008-04-18","2008-05-18",2014,"2012-12-30","2008-12-03","talek",2179,4.7,0.0166666666666667,"2008",6.08333333333333,"mid"
"hon",2,"postgrad","2008-12-03","2009-06-19",-0.14,-0.14,1,1,0,NA,6.1667,"f","mp","2008-04-18","2008-05-18",2014,"2012-12-30","2008-12-03","talek",2179,4.7,0.0166666666666667,"2008",6.08333333333333,"mid"
"hon",3,"adult","2010-04-18","2010-11-02",-0.26,-0.26,6,6,0,0.6,91.8417,"f","mp","2008-04-18","2008-05-18",2014,"2012-12-30","2008-12-03","talek",2179,4.7,0.0166666666666667,"2008",6.08333333333333,"mid"
"hoo",1,"cd","1999-05-01","1999-12-05",0,0,11,11,99,0.381818181818182,298.0009,"f","nav","1999-04-16","1999-05-01",2001,"2001-12-16","1999-12-06","talek",975,2.67,NA,"1999",NA,"mid"
"hoo",2,"postgrad","1999-12-06","2000-07-11",-0.25,-0.25,26,26,475,0.203076923076923,961.8581,"f","nav","1999-04-16","1999-05-01",2001,"2001-12-16","1999-12-06","talek",975,2.67,NA,"1999",NA,"mid"
"hoo",3,"adult","2001-04-16","2001-11-19",-0.18,-0.18,11,11,0,0.2,1055.6151,"f","nav","1999-04-16","1999-05-01",2001,"2001-12-16","1999-12-06","talek",975,2.67,NA,"1999",NA,"mid"
"hp",1,"cd","1991-05-09","1991-12-21",0.56,0.56,7,7,457,0.142857142857143,50.7333,"m","coch","1991-04-01","1991-05-09",1993,"1994-07-30","1991-12-22","talek",914,3.33,NA,"1991",NA,"high"
"hp",2,"postgrad","1991-12-22","1992-08-04",0.47,0.47,6,6,87,0.2,61.107,"m","coch","1991-04-01","1991-05-09",1993,"1994-07-30","1991-12-22","talek",914,3.33,NA,"1991",NA,"high"
"hp",3,"adult","1993-04-01","1993-11-12",0.44,0.44,16,16,10,0.391666666666667,228.0179,"m","coch","1991-04-01","1991-05-09",1993,"1994-07-30","1991-12-22","talek",914,3.33,NA,"1991",NA,"high"
"hrm",1,"cd","2004-07-01","2005-02-28",1,1,16,16,237,0.458333333333333,239.6068,"m","mrph","2004-05-20","2004-07-01",2008,"2008-05-24","2005-03-01","talek",1465,4.01,NA,"2004",NA,"high"
"hrm",2,"postgrad","2005-03-01","2005-10-29",1,1,20,20,377,0.342105263157895,208.4063,"m","mrph","2004-05-20","2004-07-01",2008,"2008-05-24","2005-03-01","talek",1465,4.01,NA,"2004",NA,"high"
"hrm",3,"adult","2006-05-20","2007-01-17",1,1,7,7,113,0.19047619047619,67.9074,"m","mrph","2004-05-20","2004-07-01",2008,"2008-05-24","2005-03-01","talek",1465,4.01,NA,"2004",NA,"high"
"hrp",1,"cd","2000-07-23","2001-03-17",-0.8,-0.8,12,12,165,0.378787878787879,181.322,"f","amar","2000-06-25","2000-07-23",2006,"2012-07-06","2001-03-18","talek",2021,12.04,0.000771604938271605,"2000",0.281635802469136,"low"
"hrp",2,"postgrad","2001-03-18","2001-11-10",-0.8,-0.8,5,5,57,0.4,227.3056,"f","amar","2000-06-25","2000-07-23",2006,"2012-07-06","2001-03-18","talek",2021,12.04,0.000771604938271605,"2000",0.281635802469136,"low"
"hrp",3,"adult","2002-06-25","2003-02-17",-0.54,-0.54,6,6,0,0.6,93.8655,"f","amar","2000-06-25","2000-07-23",2006,"2012-07-06","2001-03-18","talek",2021,12.04,0.000771604938271605,"2000",0.281635802469136,"low"
"hum",1,"cd","2004-12-03","2005-07-03",-0.25,-0.25,8,8,0,0.5,324.2167,"m","mp","2004-10-30","2004-12-03",2006,"2006-07-08","2005-07-04","talek",616,1.69,NA,"2004",NA,"mid"
"hum",2,"postgrad","2005-07-04","2006-02-01",-0.13,-0.13,12,12,69,0.348484848484849,247.835,"m","mp","2004-10-30","2004-12-03",2006,"2006-07-08","2005-07-04","talek",616,1.69,NA,"2004",NA,"mid"
"ind",1,"cd","1999-01-29","1999-08-05",-0.45,-0.45,9,9,222,0.222222222222222,126.1114,"m","bail","1998-12-02","1999-01-29",2002,"2002-08-18","1999-08-06","talek",1355,3.71,NA,"1998",NA,"low"
"ind",2,"postgrad","1999-08-06","2000-02-10",-0.58,-0.58,13,13,2,0.282051282051282,548.5408,"m","bail","1998-12-02","1999-01-29",2002,"2002-08-18","1999-08-06","talek",1355,3.71,NA,"1998",NA,"low"
"ind",3,"adult","2000-12-02","2001-06-07",-0.65,-0.65,6,6,0,0.333333333333333,157.9651,"m","bail","1998-12-02","1999-01-29",2002,"2002-08-18","1999-08-06","talek",1355,3.71,NA,"1998",NA,"low"
"jab",1,"cd","1992-02-03","1992-10-20",0.87,0.87,3,3,37,0,33.2857,"f","bb","1992-02-02","1992-02-03",1998,"1998-04-26","1992-10-21","talek",2275,6.23,0.00575953923686105,"1992",2.10223182145428,"high"
"jab",2,"postgrad","1992-10-21","1993-07-08",0.78,0.78,17,17,109,0.455882352941176,187.4198,"f","bb","1992-02-02","1992-02-03",1998,"1998-04-26","1992-10-21","talek",2275,6.23,0.00575953923686105,"1992",2.10223182145428,"high"
"jab",3,"adult","1994-02-02","1994-10-19",0.75,0.75,18,18,56,0.379084967320261,334.5697,"f","bb","1992-02-02","1992-02-03",1998,"1998-04-26","1992-10-21","talek",2275,6.23,0.00575953923686105,"1992",2.10223182145428,"high"
"jas",1,"cd","1999-05-22","1999-12-02",-0.64,-0.64,8,8,139,0.178571428571429,329.3679,"m","gol","1999-04-17","1999-05-22",2002,"2002-01-09","1999-12-03","talek",998,2.73,NA,"1999",NA,"low"
"jas",2,"postgrad","1999-12-03","2000-06-14",-0.75,-0.75,22,22,143,0.220779220779221,707.1,"m","gol","1999-04-17","1999-05-22",2002,"2002-01-09","1999-12-03","talek",998,2.73,NA,"1999",NA,"low"
"jas",3,"adult","2001-04-17","2001-10-27",-1,-1,7,7,0,0.19047619047619,426.8334,"m","gol","1999-04-17","1999-05-22",2002,"2002-01-09","1999-12-03","talek",998,2.73,NA,"1999",NA,"low"
"jb",1,"cd","1993-07-24","1993-12-11",1,1,12,12,130,0.363636363636364,108.5173,"f","bsh","1993-06-26","1993-07-24",1997,"1997-12-03","1993-12-12","talek",1643,4.44,0.00570613409415121,"1993",2.08273894436519,"high"
"jb",2,"postgrad","1993-12-12","1994-05-01",1,1,7,7,161,0.0476190476190476,80.7499,"f","bsh","1993-06-26","1993-07-24",1997,"1997-12-03","1993-12-12","talek",1643,4.44,0.00570613409415121,"1993",2.08273894436519,"high"
"jb",3,"adult","1995-06-26","1995-11-13",1,1,10,10,61,0.355555555555556,117.917,"f","bsh","1993-06-26","1993-07-24",1997,"1997-12-03","1993-12-12","talek",1643,4.44,0.00570613409415121,"1993",2.08273894436519,"high"
"jj",1,"cd","1992-10-23","1993-03-28",0.56,0.56,16,16,254,0.425,191.7799,"f","dj","1992-09-15","1992-10-23",2003,"2003-01-29","1993-03-29","talek",3788,10.38,0.0035288928098809,"1992",1.28804587560653,"high"
"jj",2,"postgrad","1993-03-29","1993-09-01",0.56,0.56,16,16,83,0.3,215.3802,"f","dj","1992-09-15","1992-10-23",2003,"2003-01-29","1993-03-29","talek",3788,10.38,0.0035288928098809,"1992",1.28804587560653,"high"
"jj",3,"adult","1994-09-15","1995-02-18",0.56,0.56,17,17,135,0.426470588235294,192.4539,"f","dj","1992-09-15","1992-10-23",2003,"2003-01-29","1993-03-29","talek",3788,10.38,0.0035288928098809,"1992",1.28804587560653,"high"
"jnga",1,"cd","2006-01-29","2006-08-15",0.5,0.5,3,3,11,0,79.1515,"m","adon","2005-12-20","2006-01-29",2007,"2007-03-08","2006-08-16","talek",443,1.21,NA,"2005",NA,"high"
"jnga",2,"postgrad","2006-08-16","2007-03-02",0.41,0.41,8,8,5,0.142857142857143,166.5662,"m","adon","2005-12-20","2006-01-29",2007,"2007-03-08","2006-08-16","talek",443,1.21,NA,"2005",NA,"high"
"jone",1,"cd","1995-09-06","1996-04-18",0.56,0.56,18,18,94,0.300653594771242,516.7202,"f","jab","1995-08-01","1995-09-06",1997,"1997-05-25","1996-04-19","talek",663,1.82,NA,"1995",NA,"high"
"jone",2,"postgrad","1996-04-19","1996-11-30",0.56,0.56,17,17,127,0.492647058823529,340.0739,"f","jab","1995-08-01","1995-09-06",1997,"1997-05-25","1996-04-19","talek",663,1.82,NA,"1995",NA,"high"
"juno",1,"cd","2008-05-20","2009-02-19",1,1,4,4,0,0.666666666666667,61.5648,"f","mrph","2008-04-20","2008-05-20",NA,"2012-12-29","2009-02-20","talek",NA,4.7,0.00291545189504373,"2008",1.06413994169096,"high"
"juno",2,"postgrad","2009-02-20","2009-11-22",1,1,16,16,699,0.2,272.8027,"f","mrph","2008-04-20","2008-05-20",NA,"2012-12-29","2009-02-20","talek",NA,4.7,0.00291545189504373,"2008",1.06413994169096,"high"
"juno",3,"adult","2010-04-20","2011-01-20",1,1,27,27,226,0.304843304843305,506.9376,"f","mrph","2008-04-20","2008-05-20",NA,"2012-12-29","2009-02-20","talek",NA,4.7,0.00291545189504373,"2008",1.06413994169096,"high"
"jut",1,"cd","1999-01-29","1999-06-19",0.09,0.09,1,1,0,NA,32.8,"f","ger","1998-11-30","1999-01-29",2003,"2003-11-24","1999-06-20","talek",1820,4.99,0.00533333333333333,"1998",1.94666666666667,"mid"
"jut",2,"postgrad","1999-06-20","1999-11-08",0.09,0.09,8,8,4,0.357142857142857,153.9474,"f","ger","1998-11-30","1999-01-29",2003,"2003-11-24","1999-06-20","talek",1820,4.99,0.00533333333333333,"1998",1.94666666666667,"mid"
"jut",3,"adult","2000-11-30","2001-04-19",-0.06,-0.06,5,5,71,0.1,119.35,"f","ger","1998-11-30","1999-01-29",2003,"2003-11-24","1999-06-20","talek",1820,4.99,0.00533333333333333,"1998",1.94666666666667,"mid"
"jy",1,"cd","1989-09-05","1990-04-16",-1,-1,22,22,230,0.411255411255411,379.269,"m","lg","1989-08-05","1989-09-05",1990,"1990-05-02","1990-04-17","talek",270,0.74,NA,"1989",NA,"low"
"jy",2,"postgrad","1990-04-17","1990-11-26",-1,-1,3,3,0,0.333333333333333,89.3571,"m","lg","1989-08-05","1989-09-05",1990,"1990-05-02","1990-04-17","talek",270,0.74,NA,"1989",NA,"low"
"kang",1,"cd","1996-10-11","1997-05-12",-0.92,-0.92,28,28,83,0.650793650793651,1007.0666,"m","lg","1996-10-07","1996-10-11",1998,"1998-02-15","1997-05-13","talek",496,1.36,NA,"1996",NA,"low"
"kang",2,"postgrad","1997-05-13","1997-12-12",-0.92,-0.92,21,21,164,0.485714285714286,376.5351,"m","lg","1996-10-07","1996-10-11",1998,"1998-02-15","1997-05-13","talek",496,1.36,NA,"1996",NA,"low"
"kier",1,"cd","2001-02-05","2001-10-31",0.41,0.41,17,17,295,0.242647058823529,816.726,"f","mali","2000-12-25","2001-02-05",2005,"2005-06-03","2001-11-01","talek",1621,4.44,0.00467289719626168,"2000",1.70560747663551,"high"
"kier",2,"postgrad","2001-11-01","2002-07-27",0.2,0.2,6,6,4,0.4,172.0526,"f","mali","2000-12-25","2001-02-05",2005,"2005-06-03","2001-11-01","talek",1621,4.44,0.00467289719626168,"2000",1.70560747663551,"mid"
"kier",3,"adult","2002-12-25","2003-09-19",-0.08,-0.08,19,19,35,0.345029239766082,300.1471,"f","mali","2000-12-25","2001-02-05",2005,"2005-06-03","2001-11-01","talek",1621,4.44,0.00467289719626168,"2000",1.70560747663551,"mid"
"kip",1,"cd","1993-12-16","1994-08-22",0.83,0.83,10,10,36,0.333333333333333,319.9765,"f","who","1993-12-10","1993-12-16",2000,"2000-09-26","1994-08-23","talek",2471,6.8,0.00506879073135409,"1993",1.85010861694424,"high"
"kip",2,"postgrad","1994-08-23","1995-04-29",0.85,0.85,10,10,35,0.511111111111111,188.4125,"f","who","1993-12-10","1993-12-16",2000,"2000-09-26","1994-08-23","talek",2471,6.8,0.00506879073135409,"1993",1.85010861694424,"high"
"kip",3,"adult","1995-12-10","1996-08-15",0.78,0.78,12,12,0,0.545454545454545,268.3848,"f","who","1993-12-10","1993-12-16",2000,"2000-09-26","1994-08-23","talek",2471,6.8,0.00506879073135409,"1993",1.85010861694424,"high"
"kk",1,"cd","1991-01-17","1991-08-29",-0.33,-0.33,3,3,53,0,44.1214,"m","bf","1990-12-15","1991-01-17",1992,"1992-01-17","1991-08-30","talek",398,1.09,NA,"1990",NA,"mid"
"kk",2,"postgrad","1991-08-30","1992-04-10",-0.2,-0.2,4,4,0,0,202.8333,"m","bf","1990-12-15","1991-01-17",1992,"1992-01-17","1991-08-30","talek",398,1.09,NA,"1990",NA,"mid"
"kl",1,"cd","1993-08-20","1994-03-29",0.08,0.08,11,11,72,0.218181818181818,137.2321,"f","ua","1993-07-07","1993-08-20",1994,"1994-12-30","1994-03-30","talek",527,1.48,NA,"1993",NA,"mid"
"kl",2,"postgrad","1994-03-30","1994-11-06",0.08,0.08,1,1,0,NA,12.0769,"f","ua","1993-07-07","1993-08-20",1994,"1994-12-30","1994-03-30","talek",527,1.48,NA,"1993",NA,"mid"
"kon",1,"cd","1995-01-31","1995-11-27",-0.11,-0.11,20,20,122,0.457894736842105,314.4781,"m","ua","1995-01-25","1995-01-31",2000,"2000-06-16","1995-11-28","talek",1969,5.39,NA,"1995",NA,"mid"
"kon",2,"postgrad","1995-11-28","1996-09-23",-0.19,-0.19,19,19,37,0.362573099415205,1294.0291,"m","ua","1995-01-25","1995-01-31",2000,"2000-06-16","1995-11-28","talek",1969,5.39,NA,"1995",NA,"mid"
"kon",3,"adult","1997-01-25","1997-11-20",-0.36,-0.36,21,21,11,0.585714285714286,746.0659,"m","ua","1995-01-25","1995-01-31",2000,"2000-06-16","1995-11-28","talek",1969,5.39,NA,"1995",NA,"low"
"krk",1,"cd","1992-02-19","1992-10-13",0.73,0.73,7,7,97,0.19047619047619,92.9737,"m","kb","1992-01-10","1992-02-19",1994,"1994-02-06","1992-10-14","talek",758,2.08,NA,"1992",NA,"high"
"krk",2,"postgrad","1992-10-14","1993-06-08",0.67,0.67,15,15,17,0.523809523809524,229.4813,"m","kb","1992-01-10","1992-02-19",1994,"1994-02-06","1992-10-14","talek",758,2.08,NA,"1992",NA,"high"
"kxb",1,"cd","1992-02-19","1992-10-13",0.73,0.73,4,4,59,0,67.787,"m","kb","1992-01-10","1992-02-19",1994,"1994-02-23","1992-10-14","talek",775,2.12,NA,"1992",NA,"high"
"kxb",2,"postgrad","1992-10-14","1993-06-08",0.67,0.67,10,10,0,0.4,269.875,"m","kb","1992-01-10","1992-02-19",1994,"1994-02-23","1992-10-14","talek",775,2.12,NA,"1992",NA,"high"
"ky",1,"cd","1989-09-05","1990-04-17",-1,-1,25,25,188,0.393333333333333,436.5775,"m","lg","1989-08-05","1989-09-05",1990,"1990-05-20","1990-04-18","talek",288,0.79,NA,"1989",NA,"low"
"ky",2,"postgrad","1990-04-18","1990-11-28",-1,-1,2,2,1,0,28.9,"m","lg","1989-08-05","1989-09-05",1990,"1990-05-20","1990-04-18","talek",288,0.79,NA,"1989",NA,"low"
"ldv",1,"cd","1997-12-19","1998-10-24",0.17,0.17,1,1,0,NA,6.25,"m","hg","1997-11-24","1997-12-19",2007,"2007-04-24","1998-10-25","talek",3437,9.42,NA,"1997",NA,"mid"
"ldv",2,"postgrad","1998-10-25","1999-08-30",0.27,0.27,16,16,481,0.316666666666667,347.0604,"m","hg","1997-11-24","1997-12-19",2007,"2007-04-24","1998-10-25","talek",3437,9.42,NA,"1997",NA,"mid"
"ldv",3,"adult","1999-11-24","2000-09-28",0.25,0.25,19,19,258,0.333333333333333,369.3943,"m","hg","1997-11-24","1997-12-19",2007,"2007-04-24","1998-10-25","talek",3437,9.42,NA,"1997",NA,"mid"
"lf",1,"cd","1993-12-11","1994-10-02",0.83,0.83,15,15,270,0.485714285714286,209.8705,"m","who","1993-12-10","1993-12-11",1994,"1994-12-01","1994-10-03","talek",356,0.98,NA,"1993",NA,"high"
"linc",1,"cd","1996-11-30","1997-06-28",-0.04,-0.04,39,39,76,0.531713900134953,2802.1782,"m","nav","1996-10-23","1996-11-30",2001,"2001-01-05","1997-06-29","talek",1545,4.21,NA,"1996",NA,"mid"
"linc",2,"postgrad","1997-06-29","1998-01-25",-0.08,-0.08,19,19,78,0.421052631578947,623.0635,"m","nav","1996-10-23","1996-11-30",2001,"2001-01-05","1997-06-29","talek",1545,4.21,NA,"1996",NA,"mid"
"linc",3,"adult","1998-10-23","1999-05-21",0,0,6,6,40,0.4,134.0158,"m","nav","1996-10-23","1996-11-30",2001,"2001-01-05","1997-06-29","talek",1545,4.21,NA,"1996",NA,"mid"
"loki",1,"cd","2008-05-20","2009-06-17",1,1,16,16,338,0.366666666666667,288.2447,"f","mrph","2008-04-20","2008-05-20",2014,"2012-12-17","2009-06-18","talek",2181,4.66,0.00643500643500643,"2008",2.34877734877735,"high"
"loki",2,"postgrad","2009-06-18","2010-07-16",1,1,18,18,359,0.176470588235294,437.3337,"f","mrph","2008-04-20","2008-05-20",2014,"2012-12-17","2009-06-18","talek",2181,4.66,0.00643500643500643,"2008",2.34877734877735,"high"
"loki",3,"adult","2010-04-20","2011-05-18",1,1,27,27,217,0.321937321937322,404.6787,"f","mrph","2008-04-20","2008-05-20",2014,"2012-12-17","2009-06-18","talek",2181,4.66,0.00643500643500643,"2008",2.34877734877735,"high"
"lop",1,"cd","1995-03-27","1995-10-21",0.85,0.85,26,26,164,0.347692307692308,411.3162,"f","who","1995-02-15","1995-03-27",1997,"1997-03-07","1995-10-22","talek",745,2.06,NA,"1995",NA,"high"
"lop",2,"postgrad","1995-10-22","1996-05-17",0.78,0.78,15,15,206,0.266666666666667,203.4007,"f","who","1995-02-15","1995-03-27",1997,"1997-03-07","1995-10-22","talek",745,2.06,NA,"1995",NA,"high"
"lop",3,"adult","1997-02-15","1997-09-10",0.68,0.68,8,8,0,0.785714285714286,679.9024,"f","who","1995-02-15","1995-03-27",1997,"1997-03-07","1995-10-22","talek",745,2.06,NA,"1995",NA,"high"
"mac",1,"cd","2001-08-30","2002-07-24",-0.33,-0.33,20,20,239,0.368421052631579,2238.2031,"f","ger","2001-08-10","2001-08-30",2005,"2005-07-11","2002-07-25","talek",1431,3.92,NA,"2001",NA,"mid"
"mac",2,"postgrad","2002-07-25","2003-06-18",-0.54,-0.54,6,6,128,0.2,161.2781,"f","ger","2001-08-10","2001-08-30",2005,"2005-07-11","2002-07-25","talek",1431,3.92,NA,"2001",NA,"low"
"mac",3,"adult","2003-08-10","2004-07-03",-0.47,-0.47,23,23,67,0.450592885375494,472.2536,"f","ger","2001-08-10","2001-08-30",2005,"2005-07-11","2002-07-25","talek",1431,3.92,NA,"2001",NA,"low"
"mali",1,"cd","1996-11-11","1997-06-08",0.36,0.36,16,16,61,0.641666666666667,571.2913,"f","jab","1996-10-13","1996-11-11",2006,"2006-01-13","1997-06-09","talek",3379,9.26,0.00425129900803023,"1996",1.55172413793103,"high"
"mali",2,"postgrad","1997-06-09","1998-01-04",0.33,0.33,27,27,320.5,0.398860398860399,651.7154,"f","jab","1996-10-13","1996-11-11",2006,"2006-01-13","1997-06-09","talek",3379,9.26,0.00425129900803023,"1996",1.55172413793103,"high"
"mali",3,"adult","1998-10-13","1999-05-10",0.33,0.33,15,15,266,0.19047619047619,332.5982,"f","jab","1996-10-13","1996-11-11",2006,"2006-01-13","1997-06-09","talek",3379,9.26,0.00425129900803023,"1996",1.55172413793103,"high"
"mas",1,"cd","2006-02-15","2006-10-31",0.75,0.75,3,3,0,0.333333333333333,90.8667,"m","tia","2005-11-20","2006-02-15",2007,"2006-12-06","2006-11-01","talek",746,1.04,NA,"2005",NA,"high"
"mas",2,"postgrad","2006-11-01","2007-07-17",0.65,0.65,1,1,0,NA,18,"m","tia","2005-11-20","2006-02-15",2007,"2006-12-06","2006-11-01","talek",746,1.04,NA,"2005",NA,"high"
"maz",1,"cd","1996-11-20","1997-06-07",0.12,0.12,40,40,134,0.491025641025641,1938.3357,"f","jj","1996-11-14","1996-11-20",1997,"1997-11-27","1997-06-08","talek",378,1.04,NA,"1996",NA,"mid"
"maz",2,"postgrad","1997-06-08","1997-12-24",0.12,0.12,27,27,108,0.356125356125356,687.0155,"f","jj","1996-11-14","1996-11-20",1997,"1997-11-27","1997-06-08","talek",378,1.04,NA,"1996",NA,"mid"
"mca",1,"cd","1999-05-22","1999-12-04",-0.64,-0.64,4,4,54,0.5,90.1259,"m","gol","1999-04-17","1999-05-22",2001,"2001-12-05","1999-12-05","talek",963,2.64,NA,"1999",NA,"low"
"mca",2,"postgrad","1999-12-05","2000-06-18",-0.75,-0.75,12,12,189,0.333333333333333,331.1075,"m","gol","1999-04-17","1999-05-22",2001,"2001-12-05","1999-12-05","talek",963,2.64,NA,"1999",NA,"low"
"mca",3,"adult","2001-04-17","2001-10-29",-1,-1,9,9,0,0.222222222222222,646.1667,"m","gol","1999-04-17","1999-05-22",2001,"2001-12-05","1999-12-05","talek",963,2.64,NA,"1999",NA,"low"
"mh",1,"cd","1994-07-08","1995-01-25",0.78,0.78,8,8,30,0.428571428571429,108.3913,"f","bb","1994-06-22","1994-07-08",1996,"1996-03-12","1995-01-26","talek",629,1.72,NA,"1994",NA,"high"
"mh",2,"postgrad","1995-01-26","1995-08-15",0.78,0.78,18,18,206,0.235294117647059,456.9219,"f","bb","1994-06-22","1994-07-08",1996,"1996-03-12","1995-01-26","talek",629,1.72,NA,"1994",NA,"high"
"mjv",1,"cd","2011-03-18","2011-06-30",0.64,0.64,21,21,58,0.261904761904762,458.5574,"m","cen","2010-12-24","2011-03-18",2011,"2011-09-15","2011-07-01","talek",265,0.73,NA,"2010",NA,"high"
"mjv",2,"postgrad","2011-07-01","2011-10-13",0.64,0.64,12,12,114,0.242424242424242,118.8172,"m","cen","2010-12-24","2011-03-18",2011,"2011-09-15","2011-07-01","talek",265,0.73,NA,"2010",NA,"high"
"moil",1,"cd","2002-01-08","2002-09-09",-0.73,-0.73,13,13,239,0.256410256410256,611.4267,"m","bail","2001-11-10","2002-01-08",2003,"2003-01-15","2002-09-10","talek",490,1.18,NA,"2001",NA,"low"
"moil",2,"postgrad","2002-09-10","2003-05-12",-1,-1,9,9,72,0.138888888888889,317.5224,"m","bail","2001-11-10","2002-01-08",2003,"2003-01-15","2002-09-10","talek",490,1.18,NA,"2001",NA,"low"
"mojo",1,"cd","1999-12-05","2000-07-26",-0.58,-0.58,15,15,71,0.228571428571429,635.3889,"m","bail","1999-11-17","1999-12-05",2004,"2004-11-27","2000-07-27","talek",1837,5.03,NA,"1999",NA,"low"
"mojo",2,"postgrad","2000-07-27","2001-03-18",-0.65,-0.65,17,17,54,0.272058823529412,590.6993,"m","bail","1999-11-17","1999-12-05",2004,"2004-11-27","2000-07-27","talek",1837,5.03,NA,"1999",NA,"low"
"molo",1,"cd","2008-06-01","2009-01-21",0.24,0.24,4,4,0,0.166666666666667,69.4343,"m","art","2008-04-15","2008-06-01",2010,"2010-07-11","2009-01-22","talek",817,2.24,NA,"2008",NA,"mid"
"molo",2,"postgrad","2009-01-22","2009-09-13",0.24,0.24,2,2,0,0,34.55,"m","art","2008-04-15","2008-06-01",2010,"2010-07-11","2009-01-22","talek",817,2.24,NA,"2008",NA,"mid"
"molo",3,"adult","2010-04-15","2010-12-05",0.19,0.19,4,4,0,0.166666666666667,65.025,"m","art","2008-04-15","2008-06-01",2010,"2010-07-11","2009-01-22","talek",817,2.24,NA,"2008",NA,"mid"
"mos",1,"cd","2003-04-17","2003-10-27",1,1,11,11,114,0.4,175.9767,"f","mrph","2003-02-18","2003-04-17",2013,"2012-12-29","2003-10-28","talek",3739,9.87,0.00571895424836601,"2003",2.08741830065359,"high"
"mos",2,"postgrad","2003-10-28","2004-05-08",1,1,22,22,81,0.329004329004329,462.9355,"f","mrph","2003-02-18","2003-04-17",2013,"2012-12-29","2003-10-28","talek",3739,9.87,0.00571895424836601,"2003",2.08741830065359,"high"
"mos",3,"adult","2005-02-18","2005-08-29",1,1,14,14,39,0.351648351648352,207.4947,"f","mrph","2003-02-18","2003-04-17",2013,"2012-12-29","2003-10-28","talek",3739,9.87,0.00571895424836601,"2003",2.08741830065359,"high"
"mp",1,"cd","1994-08-14","1995-06-29",0.56,0.56,18,18,390,0.261437908496732,265.0198,"f","dj","1994-07-23","1994-08-14",2013,"2012-12-28","1995-06-30","talek",6930,18.45,0.00260156093656194,"1994",0.949569741845107,"high"
"mp",2,"postgrad","1995-06-30","1996-05-14",0.48,0.48,21,21,74,0.333333333333333,542.9898,"f","dj","1994-07-23","1994-08-14",2013,"2012-12-28","1995-06-30","talek",6930,18.45,0.00260156093656194,"1994",0.949569741845107,"high"
"mp",3,"adult","1996-07-23","1997-06-06",0.48,0.48,34,34,30,0.631016042780749,1564.6704,"f","dj","1994-07-23","1994-08-14",2013,"2012-12-28","1995-06-30","talek",6930,18.45,0.00260156093656194,"1994",0.949569741845107,"high"
"mrph",1,"cd","1996-07-24","1996-12-28",1,1,40,40,140,0.383333333333333,2074.2655,"f","bsh","1996-06-25","1996-07-24",2011,"2011-04-10","1996-12-29","talek",5404,14.8,0.00419982316534041,"1996",1.53293545534925,"high"
"mrph",2,"postgrad","1996-12-29","1997-06-04",1,1,34,34,172,0.442067736185383,1151.4955,"f","bsh","1996-06-25","1996-07-24",2011,"2011-04-10","1996-12-29","talek",5404,14.8,0.00419982316534041,"1996",1.53293545534925,"high"
"mrph",3,"adult","1998-06-25","1998-11-29",1,1,10,10,339,0.177777777777778,138.8151,"f","bsh","1996-06-25","1996-07-24",2011,"2011-04-10","1996-12-29","talek",5404,14.8,0.00419982316534041,"1996",1.53293545534925,"high"
"msl",1,"cd","2005-12-19","2006-07-22",-0.13,-0.13,4,4,33,0,257.0333,"f","mp","2005-12-05","2005-12-19",2011,"2011-02-01","2006-07-23","talek",1884,5.16,0.003690036900369,"2005",1.34686346863469,"mid"
"msl",2,"postgrad","2006-07-23","2007-02-23",-0.18,-0.18,10,10,54,0.4,142.5632,"f","mp","2005-12-05","2005-12-19",2011,"2011-02-01","2006-07-23","talek",1884,5.16,0.003690036900369,"2005",1.34686346863469,"mid"
"msl",3,"adult","2007-12-05","2008-07-07",-0.13,-0.13,3,3,0,0,110.1667,"f","mp","2005-12-05","2005-12-19",2011,"2011-02-01","2006-07-23","talek",1884,5.16,0.003690036900369,"2005",1.34686346863469,"mid"
"nav",1,"cd","1992-11-29","1993-06-07",0.44,0.44,10,10,33,0.644444444444444,110.1515,"f","coch","1992-11-07","1992-11-29",NA,"2012-10-10","1993-06-08","talek",NA,19.94,0.00240096038415366,"1992",0.876350540216086,"high"
"nav",2,"postgrad","1993-06-08","1993-12-15",0.44,0.44,4,4,3,0.333333333333333,40.6826,"f","coch","1992-11-07","1992-11-29",NA,"2012-10-10","1993-06-08","talek",NA,19.94,0.00240096038415366,"1992",0.876350540216086,"high"
"nav",3,"adult","1994-11-07","1995-05-16",0.48,0.48,13,13,0,0.320512820512821,504.4543,"f","coch","1992-11-07","1992-11-29",NA,"2012-10-10","1993-06-08","talek",NA,19.94,0.00240096038415366,"1992",0.876350540216086,"high"
"nod",1,"cd","1996-11-29","1997-05-24",-0.36,-0.36,14,14,19,0.450549450549451,870.4762,"m","ua","1996-10-13","1996-11-29",2001,"2001-03-27","1997-05-25","talek",1586,4.45,NA,"1996",NA,"low"
"nod",2,"postgrad","1997-05-25","1997-11-17",-0.36,-0.36,24,24,232,0.481884057971015,624.5552,"m","ua","1996-10-13","1996-11-29",2001,"2001-03-27","1997-05-25","talek",1586,4.45,NA,"1996",NA,"low"
"nod",3,"adult","1998-10-13","1999-04-07",-0.27,-0.27,5,5,0,0.3,312.6666,"m","ua","1996-10-13","1996-11-29",2001,"2001-03-27","1997-05-25","talek",1586,4.45,NA,"1996",NA,"mid"
"nola",1,"cd","2000-10-11","2001-05-24",0.29,0.29,21,21,142,0.257142857142857,530.6126,"f","mp","2000-09-25","2000-10-11",2002,"2002-03-27","2001-05-25","talek",548,1.5,NA,"2000",NA,"mid"
"nola",2,"postgrad","2001-05-25","2002-01-05",0.07,0.07,17,17,262,0.294117647058824,396.3951,"f","mp","2000-09-25","2000-10-11",2002,"2002-03-27","2001-05-25","talek",548,1.5,NA,"2000",NA,"mid"
"oke",1,"cd","1997-12-19","1998-10-30",0.17,0.17,4,4,18,0.166666666666667,63.5167,"f","hg","1997-11-24","1997-12-19",2003,"2003-02-01","1998-10-31","talek",1894,5.19,0.00264200792602378,"1997",0.964332892998679,"mid"
"oke",2,"postgrad","1998-10-31","1999-09-11",0.27,0.27,20,20,519,0.357894736842105,467.4144,"f","hg","1997-11-24","1997-12-19",2003,"2003-02-01","1998-10-31","talek",1894,5.19,0.00264200792602378,"1997",0.964332892998679,"mid"
"oke",3,"adult","1999-11-24","2000-10-04",0.25,0.25,26,26,158,0.255384615384615,654.9309,"f","hg","1997-11-24","1997-12-19",2003,"2003-02-01","1998-10-31","talek",1894,5.19,0.00264200792602378,"1997",0.964332892998679,"mid"
"oly",1,"cd","1995-12-28","1996-06-27",0.85,0.85,10,10,81,0.266666666666667,161.491,"m","gil","1995-11-07","1995-12-28",1999,"1999-06-20","1996-06-28","talek",1321,3.62,NA,"1995",NA,"high"
"oly",2,"postgrad","1996-06-28","1996-12-27",0.85,0.85,21,21,220,0.69047619047619,452.2249,"m","gil","1995-11-07","1995-12-28",1999,"1999-06-20","1996-06-28","talek",1321,3.62,NA,"1995",NA,"high"
"oly",3,"adult","1997-11-07","1998-05-07",0.75,0.75,9,9,650,0.138888888888889,540.9722,"m","gil","1995-11-07","1995-12-28",1999,"1999-06-20","1996-06-28","talek",1321,3.62,NA,"1995",NA,"high"
"ome",1,"cd","1997-02-22","1997-07-04",-0.12,-0.12,21,21,22,0.685714285714286,694.1755,"m","sx","1997-02-02","1997-02-22",1999,"2000-06-20","1997-07-05","talek",991,3.38,NA,"1997",NA,"mid"
"ome",2,"postgrad","1997-07-05","1997-11-14",-0.12,-0.12,22,22,68,0.428571428571429,648.9575,"m","sx","1997-02-02","1997-02-22",1999,"2000-06-20","1997-07-05","talek",991,3.38,NA,"1997",NA,"mid"
"ome",3,"adult","1999-02-02","1999-06-14",-0.09,-0.09,20,20,95,0.147368421052632,916.3333,"m","sx","1997-02-02","1997-02-22",1999,"2000-06-20","1997-07-05","talek",991,3.38,NA,"1997",NA,"mid"
"opa",1,"cd","1997-12-15","1998-10-20",-0.67,-0.67,13,13,94,0.153846153846154,602.9865,"m","gol","1997-11-12","1997-12-15",1999,"1999-05-26","1998-10-21","talek",560,1.53,NA,"1997",NA,"low"
"opa",2,"postgrad","1998-10-21","1999-08-26",-0.64,-0.64,8,8,14,0.25,224.1439,"m","gol","1997-11-12","1997-12-15",1999,"1999-05-26","1998-10-21","talek",560,1.53,NA,"1997",NA,"low"
"pan",1,"cd","2004-07-01","2005-02-28",1,1,10,10,22,0.533333333333333,195.1856,"f","mrph","2004-05-20","2004-07-01",2013,"2012-12-30","2005-03-01","talek",3232,8.62,0.00398582816651904,"2004",1.45482728077945,"high"
"pan",2,"postgrad","2005-03-01","2005-10-29",1,1,12,12,66,0.348484848484849,275.9273,"f","mrph","2004-05-20","2004-07-01",2013,"2012-12-30","2005-03-01","talek",3232,8.62,0.00398582816651904,"2004",1.45482728077945,"high"
"pan",3,"adult","2006-05-20","2007-01-17",1,1,18,18,360,0.26797385620915,368.1131,"f","mrph","2004-05-20","2004-07-01",2013,"2012-12-30","2005-03-01","talek",3232,8.62,0.00398582816651904,"2004",1.45482728077945,"high"
"par",2,"postgrad","1994-01-13","1994-06-11",-0.08,-0.08,3,3,8,0,32.6119,"f","gw","1993-07-15","1993-08-16",2006,"2011-03-05","1994-01-13","talek",4767,17.65,0.00123583934088568,"1993",0.451081359423275,"mid"
"par",3,"adult","1995-07-15","1995-12-11",-0.26,-0.26,5,5,0,0.5,194.2,"f","gw","1993-07-15","1993-08-16",2006,"2011-03-05","1994-01-13","talek",4767,17.65,0.00123583934088568,"1993",0.451081359423275,"mid"
"pf",1,"cd","1995-06-21","1995-10-31",-0.19,-0.19,17,17,114,0.235294117647059,389.5606,"m","bail","1995-05-20","1995-06-21",1996,"1996-07-28","1995-11-01","talek",431,1.19,NA,"1995",NA,"mid"
"pf",2,"postgrad","1995-11-01","1996-03-12",-0.33,-0.33,18,18,313,0.196078431372549,509.7788,"m","bail","1995-05-20","1995-06-21",1996,"1996-07-28","1995-11-01","talek",431,1.19,NA,"1995",NA,"mid"
"pims",1,"cd","1996-11-27","1997-05-22",-0.36,-0.36,18,18,27,0.529411764705882,1270.292,"m","ua","1996-10-13","1996-11-27",1998,"1998-03-27","1997-05-23","talek",530,1.45,NA,"1996",NA,"low"
"pims",2,"postgrad","1997-05-23","1997-11-15",-0.36,-0.36,19,19,4,0.415204678362573,651.0839,"m","ua","1996-10-13","1996-11-27",1998,"1998-03-27","1997-05-23","talek",530,1.45,NA,"1996",NA,"low"
"pky",1,"cd","1991-07-20","1992-04-04",-1,-1,7,7,103,0.0476190476190476,123.4199,"m","lg","1991-06-23","1991-07-20",1994,"1994-05-12","1992-04-05","talek",1054,2.89,NA,"1991",NA,"low"
"pky",2,"postgrad","1992-04-05","1992-12-20",-1,-1,2,2,0,0,42.2198,"m","lg","1991-06-23","1991-07-20",1994,"1994-05-12","1992-04-05","talek",1054,2.89,NA,"1991",NA,"low"
"pky",3,"adult","1993-06-23","1994-03-08",-1,-1,3,3,0,0.333333333333333,71.275,"m","lg","1991-06-23","1991-07-20",1994,"1994-05-12","1992-04-05","talek",1054,2.89,NA,"1991",NA,"low"
"pnc",1,"cd","2004-08-30","2005-04-28",0.13,0.13,10,10,51,0.466666666666667,172.34,"m","ali","2004-06-26","2004-08-30",2007,"2007-08-16","2005-04-29","talek",1146,3.14,NA,"2004",NA,"mid"
"pnc",2,"postgrad","2005-04-29","2005-12-26",0.13,0.13,9,9,0,0.138888888888889,151.014,"m","ali","2004-06-26","2004-08-30",2007,"2007-08-16","2005-04-29","talek",1146,3.14,NA,"2004",NA,"mid"
"pnc",3,"adult","2006-06-26","2007-02-22",-0.06,-0.06,6,6,4,0.2,155.7278,"m","ali","2004-06-26","2004-08-30",2007,"2007-08-16","2005-04-29","talek",1146,3.14,NA,"2004",NA,"mid"
"psy",1,"cd","1996-11-26","1997-06-10",-0.44,-0.44,28,28,169,0.584656084656085,1654.0525,"f","bail","1996-10-13","1996-11-26",1997,"1997-12-19","1997-06-11","talek",432,1.18,NA,"1996",NA,"low"
"psy",2,"postgrad","1997-06-11","1997-12-24",-0.44,-0.44,21,21,314,0.457142857142857,474.6028,"f","bail","1996-10-13","1996-11-26",1997,"1997-12-19","1997-06-11","talek",432,1.18,NA,"1996",NA,"low"
"pt",1,"cd","1991-05-09","1991-12-21",0.56,0.56,10,10,323,0.0444444444444444,120.9306,"f","coch","1991-04-01","1991-05-09",1996,"1996-07-14","1991-12-22","talek",1931,5.29,0.00248447204968944,"1991",0.906832298136646,"high"
"pt",2,"postgrad","1991-12-22","1992-08-04",0.47,0.47,7,7,175,0.19047619047619,71.9776,"f","coch","1991-04-01","1991-05-09",1996,"1996-07-14","1991-12-22","talek",1931,5.29,0.00248447204968944,"1991",0.906832298136646,"high"
"pt",3,"adult","1993-04-01","1993-11-12",0.44,0.44,17,17,38,0.360294117647059,215.0038,"f","coch","1991-04-01","1991-05-09",1996,"1996-07-14","1991-12-22","talek",1931,5.29,0.00248447204968944,"1991",0.906832298136646,"high"
"puc",1,"cd","1997-07-20","1997-11-22",0.04,0.04,2,2,0,0,109.75,"f","ger","1997-06-01","1997-07-20",2006,"2006-12-23","1997-11-23","talek",3492,9.57,0.00169419737399407,"1997",0.618382041507836,"mid"
"puc",2,"postgrad","1997-11-23","1998-03-28",0,0,8,8,0,0.321428571428571,403.7405,"f","ger","1997-06-01","1997-07-20",2006,"2006-12-23","1997-11-23","talek",3492,9.57,0.00169419737399407,"1997",0.618382041507836,"mid"
"puc",3,"adult","1999-06-01","1999-10-04",0.09,0.09,16,16,49,0.341666666666667,195.7399,"f","ger","1997-06-01","1997-07-20",2006,"2006-12-23","1997-11-23","talek",3492,9.57,0.00169419737399407,"1997",0.618382041507836,"mid"
"que",1,"cd","2008-05-18","2008-12-02",-0.13,-0.13,5,5,76,0.4,44.8985,"m","mp","2008-04-18","2008-05-18",2011,"2011-03-05","2008-12-03","talek",1051,2.88,NA,"2008",NA,"mid"
"que",2,"postgrad","2008-12-03","2009-06-19",-0.14,-0.14,1,1,0,NA,14.3333,"m","mp","2008-04-18","2008-05-18",2011,"2011-03-05","2008-12-03","talek",1051,2.88,NA,"2008",NA,"mid"
"que",3,"adult","2010-04-18","2010-11-02",-0.26,-0.26,2,2,0,0,41,"m","mp","2008-04-18","2008-05-18",2011,"2011-03-05","2008-12-03","talek",1051,2.88,NA,"2008",NA,"mid"
"rg",1,"cd","1989-10-14","1990-04-18",0.89,0.89,21,21,165,0.423809523809524,417.767,"m","kb","1989-09-01","1989-10-14",1991,"1991-03-13","1990-04-19","talek",558,1.53,NA,"1989",NA,"high"
"rg",2,"postgrad","1990-04-19","1990-10-22",0.89,0.89,16,16,185,0.458333333333333,202.2474,"m","kb","1989-09-01","1989-10-14",1991,"1991-03-13","1990-04-19","talek",558,1.53,NA,"1989",NA,"high"
"rinc",1,"cd","1995-09-06","1996-04-18",0.56,0.56,16,16,111,0.308333333333333,412.6558,"m","jab","1995-08-01","1995-09-06",1997,"1997-05-09","1996-04-19","talek",647,1.77,NA,"1995",NA,"high"
"rinc",2,"postgrad","1996-04-19","1996-11-30",0.56,0.56,18,18,123,0.575163398692811,480.9784,"m","jab","1995-08-01","1995-09-06",1997,"1997-05-09","1996-04-19","talek",647,1.77,NA,"1995",NA,"high"
"rm",1,"cd","1993-08-20","1994-03-29",0.08,0.08,10,10,109,0.244444444444444,65.2617,"f","ua","1993-07-07","1993-08-20",1996,"1996-12-10","1994-03-30","talek",1252,3.43,NA,"1993",NA,"mid"
"rm",2,"postgrad","1994-03-30","1994-11-06",0.08,0.08,4,4,0,0.333333333333333,108.6488,"f","ua","1993-07-07","1993-08-20",1996,"1996-12-10","1994-03-30","talek",1252,3.43,NA,"1993",NA,"mid"
"rm",3,"adult","1995-07-07","1996-02-13",-0.19,-0.19,4,4,0,0.333333333333333,96.8191,"f","ua","1993-07-07","1993-08-20",1996,"1996-12-10","1994-03-30","talek",1252,3.43,NA,"1993",NA,"mid"
"rslg",1,"cd","2002-06-18","2003-05-03",-0.38,-0.38,17,17,239,0.382352941176471,238.3249,"m","hml","2002-05-15","2002-06-18",2004,"2004-06-13","2003-05-04","talek",760,2.08,NA,"2002",NA,"low"
"rslg",2,"postgrad","2003-05-04","2004-03-18",-0.56,-0.56,8,8,67,0.357142857142857,110.3487,"m","hml","2002-05-15","2002-06-18",2004,"2004-06-13","2003-05-04","talek",760,2.08,NA,"2002",NA,"low"
"rub",1,"cd","1997-12-15","1998-10-01",-0.67,-0.67,5,5,38,0.2,164.075,"m","gol","1997-11-12","1997-12-15",2004,"2003-09-13","1998-10-02","talek",2572,5.84,NA,"1997",NA,"low"
"rub",2,"postgrad","1998-10-02","1999-07-19",-0.64,-0.64,9,9,78,0.277777777777778,529.9526,"m","gol","1997-11-12","1997-12-15",2004,"2003-09-13","1998-10-02","talek",2572,5.84,NA,"1997",NA,"low"
"rub",3,"adult","1999-11-12","2000-08-28",-0.75,-0.75,11,11,12,0.4,320.3896,"m","gol","1997-11-12","1997-12-15",2004,"2003-09-13","1998-10-02","talek",2572,5.84,NA,"1997",NA,"low"
"rump",1,"cd","2000-07-12","2001-01-26",0.4,0.4,25,25,248,0.266666666666667,642.5594,"f","wr","2000-06-25","2000-07-12",2003,"2003-05-17","2001-01-27","talek",1056,2.89,NA,"2000",NA,"high"
"rump",2,"postgrad","2001-01-27","2001-08-13",0.4,0.4,9,9,338,0.138888888888889,280.9168,"f","wr","2000-06-25","2000-07-12",2003,"2003-05-17","2001-01-27","talek",1056,2.89,NA,"2000",NA,"high"
"rump",3,"adult","2002-06-25","2003-01-09",0.38,0.38,8,8,87,0.642857142857143,93.4441,"f","wr","2000-06-25","2000-07-12",2003,"2003-05-17","2001-01-27","talek",1056,2.89,NA,"2000",NA,"high"
"rv",1,"cd","1990-06-26","1990-12-30",0,0,15,15,267,0.476190476190476,147.5279,"f","gw","1990-05-15","1990-06-26",1997,"1997-04-27","1990-12-31","talek",2539,6.96,NA,"1990",NA,"mid"
"rv",2,"postgrad","1990-12-31","1991-07-06",-0.11,-0.11,3,3,14,0,133.1333,"f","gw","1990-05-15","1990-06-26",1997,"1997-04-27","1990-12-31","talek",2539,6.96,NA,"1990",NA,"mid"
"rv",3,"adult","1992-05-15","1992-11-17",-0.07,-0.07,1,1,0,NA,17.1,"f","gw","1990-05-15","1990-06-26",1997,"1997-04-27","1990-12-31","talek",2539,6.96,NA,"1990",NA,"mid"
"sam",1,"cd","2006-09-19","2007-07-29",0.18,0.18,10,10,1,0.466666666666667,306.974,"f","art","2006-08-07","2006-09-19",2012,"2012-04-30","2007-07-30","talek",2093,5.73,0.00393700787401575,"2006",1.43700787401575,"mid"
"sam",2,"postgrad","2007-07-30","2008-06-07",0.25,0.25,8,8,72,0.392857142857143,197.7621,"f","art","2006-08-07","2006-09-19",2012,"2012-04-30","2007-07-30","talek",2093,5.73,0.00393700787401575,"2006",1.43700787401575,"mid"
"sam",3,"adult","2008-08-07","2009-06-15",0.24,0.24,8,8,0,0.571428571428571,330.3623,"f","art","2006-08-07","2006-09-19",2012,"2012-04-30","2007-07-30","talek",2093,5.73,0.00393700787401575,"2006",1.43700787401575,"mid"
"sb",1,"cd","1990-06-26","1990-12-30",0,0,23,23,389,0.403162055335968,311.9957,"m","gw","1990-05-15","1990-06-26",1993,"1993-04-05","1990-12-31","talek",1056,2.89,NA,"1990",NA,"mid"
"sb",3,"adult","1992-05-15","1992-11-17",-0.07,-0.07,1,1,0,NA,9.3,"m","gw","1990-05-15","1990-06-26",1993,"1993-04-05","1990-12-31","talek",1056,2.89,NA,"1990",NA,"mid"
"sbl",1,"cd","2004-10-05","2005-04-10",0.63,0.63,14,14,77,0.340659340659341,252.4038,"f","adon","2004-07-21","2004-10-05",2013,"2012-12-17","2005-04-11","talek",3183,8.41,0.00372142477405635,"2004",1.35832004253057,"high"
"sbl",2,"postgrad","2005-04-11","2005-10-15",0.63,0.63,13,13,142,0.192307692307692,191.018,"f","adon","2004-07-21","2004-10-05",2013,"2012-12-17","2005-04-11","talek",3183,8.41,0.00372142477405635,"2004",1.35832004253057,"high"
"sbl",3,"adult","2006-07-21","2007-01-24",0.41,0.41,6,6,38,0.4,90.0783,"f","adon","2004-07-21","2004-10-05",2013,"2012-12-17","2005-04-11","talek",3183,8.41,0.00372142477405635,"2004",1.35832004253057,"high"
"sch",1,"cd","1998-12-17","1999-07-17",-0.27,-0.27,8,8,117,0.321428571428571,97.3611,"m","ua","1998-11-20","1998-12-17",2000,"2000-04-03","1999-07-18","talek",502,1.37,NA,"1998",NA,"mid"
"sch",2,"postgrad","1999-07-18","2000-02-15",-0.42,-0.42,14,14,212,0.230769230769231,252.9829,"m","ua","1998-11-20","1998-12-17",2000,"2000-04-03","1999-07-18","talek",502,1.37,NA,"1998",NA,"low"
"scy",1,"cd","1991-01-16","1991-09-04",-0.33,-0.33,4,4,168,0,40,"f","bf","1990-12-15","1991-01-16",1995,"1995-07-27","1991-09-05","talek",1685,4.62,0.0078740157480315,"1990",2.8740157480315,"mid"
"scy",2,"postgrad","1991-09-05","1992-04-23",-0.2,-0.2,4,4,67,0.166666666666667,74.4305,"f","bf","1990-12-15","1991-01-16",1995,"1995-07-27","1991-09-05","talek",1685,4.62,0.0078740157480315,"1990",2.8740157480315,"mid"
"scy",3,"adult","1992-12-15","1993-08-02",-0.2,-0.2,15,15,2,0.466666666666667,392.8983,"f","bf","1990-12-15","1991-01-16",1995,"1995-07-27","1991-09-05","talek",1685,4.62,0.0078740157480315,"1990",2.8740157480315,"mid"
"sd",1,"cd","1990-12-30","1991-08-12",-0.44,-0.44,3,3,15,0,63.0538,"f","23s","1990-11-20","1990-12-30",1996,"2001-10-30","1991-08-13","talek",1973,10.95,0.000705965407695023,"1990",0.257677373808683,"low"
"sd",2,"postgrad","1991-08-13","1992-03-25",-0.33,-0.33,1,1,0,NA,22.2,"f","23s","1990-11-20","1990-12-30",1996,"2001-10-30","1991-08-13","talek",1973,10.95,0.000705965407695023,"1990",0.257677373808683,"mid"
"sd",3,"adult","1992-11-20","1993-07-02",-0.22,-0.22,7,7,0,0.428571428571429,182.9337,"f","23s","1990-11-20","1990-12-30",1996,"2001-10-30","1991-08-13","talek",1973,10.95,0.000705965407695023,"1990",0.257677373808683,"mid"
"sein",1,"cd","1995-05-06","1995-12-08",1,1,20,20,88,0.347368421052632,411.2783,"f","bsh","1995-03-22","1995-05-06",2002,"2002-03-09","1995-12-09","talek",2541,6.97,0.00322164948453608,"1995",1.17590206185567,"high"
"sein",2,"postgrad","1995-12-09","1996-07-12",1,1,26,26,241,0.218461538461538,675.6824,"f","bsh","1995-03-22","1995-05-06",2002,"2002-03-09","1995-12-09","talek",2541,6.97,0.00322164948453608,"1995",1.17590206185567,"high"
"sein",3,"adult","1997-03-22","1997-10-23",1,1,20,20,18,0.689473684210526,774.719,"f","bsh","1995-03-22","1995-05-06",2002,"2002-03-09","1995-12-09","talek",2541,6.97,0.00322164948453608,"1995",1.17590206185567,"high"
"sha",1,"cd","1995-12-28","1996-06-27",0.85,0.85,10,10,59,0.288888888888889,529.6246,"m","gil","1995-11-07","1995-12-28",1996,"1996-10-06","1996-06-28","talek",334,0.92,NA,"1995",NA,"high"
"sha",2,"postgrad","1996-06-28","1996-12-27",0.85,0.85,16,16,50,0.516666666666667,341.8488,"m","gil","1995-11-07","1995-12-28",1996,"1996-10-06","1996-06-28","talek",334,0.92,NA,"1995",NA,"high"
"shb",1,"cd","2001-04-21","2002-01-21",-1,-1,20,20,94,0.194736842105263,1057.7163,"m","par","2001-03-19","2001-04-21",2002,"2002-08-24","2002-01-22","talek",523,1.43,NA,"2001",NA,"low"
"shb",2,"postgrad","2002-01-22","2002-10-24",-1,-1,3,3,0,0.666666666666667,389.3333,"m","par","2001-03-19","2001-04-21",2002,"2002-08-24","2002-01-22","talek",523,1.43,NA,"2001",NA,"low"
"sir",1,"cd","1994-07-29","1995-07-18",0.04,0.04,11,11,18,0.527272727272727,290.1553,"m","sx","1994-07-10","1994-07-29",1996,"1996-02-16","1995-07-19","talek",586,1.61,NA,"1994",NA,"mid"
"sir",2,"postgrad","1995-07-19","1996-07-07",0.04,0.04,5,5,0,0.7,114.3275,"m","sx","1994-07-10","1994-07-29",1996,"1996-02-16","1995-07-19","talek",586,1.61,NA,"1994",NA,"mid"
"sks",1,"cd","1995-11-25","1996-05-29",-0.04,-0.04,14,14,100,0.351648351648352,359.0585,"m","ot","1995-10-16","1995-11-25",1998,"1998-04-21","1996-05-30","talek",918,2.52,NA,"1995",NA,"mid"
"sks",2,"postgrad","1996-05-30","1996-12-02",-0.04,-0.04,25,25,202,0.48,506.6006,"m","ot","1995-10-16","1995-11-25",1998,"1998-04-21","1996-05-30","talek",918,2.52,NA,"1995",NA,"mid"
"sks",3,"adult","1997-10-16","1998-04-19",-0.2,-0.2,1,1,0,NA,182,"m","ot","1995-10-16","1995-11-25",1998,"1998-04-21","1996-05-30","talek",918,2.52,NA,"1995",NA,"mid"
"srn",1,"cd","2008-04-14","2008-11-30",0.75,0.75,7,7,63,0.380952380952381,88.9119,"m","pan","2008-03-01","2008-04-14",2011,"2011-10-22","2008-12-01","talek",1330,3.64,NA,"2008",NA,"high"
"srn",2,"postgrad","2008-12-01","2009-07-19",0.71,0.71,2,2,5,0,28.4167,"m","pan","2008-03-01","2008-04-14",2011,"2011-10-22","2008-12-01","talek",1330,3.64,NA,"2008",NA,"high"
"srn",3,"adult","2010-03-01","2010-10-17",0.7,0.7,7,7,7,0.19047619047619,207.7809,"m","pan","2008-03-01","2008-04-14",2011,"2011-10-22","2008-12-01","talek",1330,3.64,NA,"2008",NA,"high"
"sud",2,"postgrad","2001-07-24","2002-01-30",-0.87,-0.87,8,8,97,0.642857142857143,110.8506,"f","cr","2000-12-24","2001-01-14",2002,"2011-10-03","2001-07-24","talek",647,10.78,NA,"2000",NA,"low"
"sun",1,"cd","1992-07-06","1993-01-31",-0.22,-0.22,20,20,304,0.184210526315789,544.2581,"m","23s","1992-06-05","1992-07-06",1995,"1997-04-20","1993-02-01","talek",1053,4.88,NA,"1992",NA,"mid"
"sun",2,"postgrad","1993-02-01","1993-08-29",-0.22,-0.22,20,20,75,0.384210526315789,293.794,"m","23s","1992-06-05","1992-07-06",1995,"1997-04-20","1993-02-01","talek",1053,4.88,NA,"1992",NA,"mid"
"sun",3,"adult","1994-06-05","1994-12-31",-0.33,-0.33,1,1,0,NA,46.5,"m","23s","1992-06-05","1992-07-06",1995,"1997-04-20","1993-02-01","talek",1053,4.88,NA,"1992",NA,"mid"
"sx",1,"cd","1989-11-21","1990-04-23",0.67,0.67,12,12,90,0.424242424242424,254.3495,"f","coch","1989-10-14","1989-11-21",2000,"2000-07-07","1990-04-24","talek",3897,10.74,0.00321672698029755,"1989",1.1741053478086,"high"
"sx",2,"postgrad","1990-04-24","1990-09-24",0.67,0.67,17,17,261,0.198529411764706,207.2527,"f","coch","1989-10-14","1989-11-21",2000,"2000-07-07","1990-04-24","talek",3897,10.74,0.00321672698029755,"1989",1.1741053478086,"high"
"sx",3,"adult","1991-10-14","1992-03-15",0.47,0.47,2,2,2,0,20.4445,"f","coch","1989-10-14","1989-11-21",2000,"2000-07-07","1990-04-24","talek",3897,10.74,0.00321672698029755,"1989",1.1741053478086,"high"
"tang",1,"cd","2000-09-08","2001-05-18",-0.4,-0.4,18,18,157,0.418300653594771,256.6046,"f","puc","2000-07-06","2000-09-08",2001,"2001-11-30","2001-05-19","talek",512,1.4,NA,"2000",NA,"low"
"tang",2,"postgrad","2001-05-19","2002-01-26",-0.33,-0.33,12,12,182,0.303030303030303,850.7392,"f","puc","2000-07-06","2000-09-08",2001,"2001-11-30","2001-05-19","talek",512,1.4,NA,"2000",NA,"mid"
"tdum",1,"cd","1996-05-20","1996-12-18",0.63,0.63,39,39,281,0.418353576248313,1836.3624,"m","bb","1996-03-20","1996-05-20",1999,"1999-12-07","1996-12-19","talek",1243,3.72,NA,"1996",NA,"high"
"tdum",2,"postgrad","1996-12-19","1997-07-19",0.52,0.52,23,23,343,0.557312252964427,599.4984,"m","bb","1996-03-20","1996-05-20",1999,"1999-12-07","1996-12-19","talek",1243,3.72,NA,"1996",NA,"high"
"tdum",3,"adult","1998-03-20","1998-10-18",0.5,0.5,10,10,216,0.111111111111111,220.8055,"m","bb","1996-03-20","1996-05-20",1999,"1999-12-07","1996-12-19","talek",1243,3.72,NA,"1996",NA,"high"
"tgw",1,"cd","2006-02-15","2006-08-15",0.75,0.75,1,1,0,NA,32.1429,"f","tia","2005-11-20","2006-02-15",2007,"2006-12-12","2006-08-16","talek",752,1.06,NA,"2005",NA,"high"
"tgw",2,"postgrad","2006-08-16","2007-02-13",0.65,0.65,8,8,110,0.142857142857143,146.9674,"f","tia","2005-11-20","2006-02-15",2007,"2006-12-12","2006-08-16","talek",752,1.06,NA,"2005",NA,"high"
"thor",1,"cd","2002-04-26","2002-11-09",1,1,9,9,173,0.333333333333333,321.3664,"f","mrph","2002-03-08","2002-04-26",2003,"2003-01-20","2002-11-10","talek",318,0.87,NA,"2002",NA,"high"
"thor",2,"postgrad","2002-11-10","2003-05-26",1,1,3,3,0,0.333333333333333,229,"f","mrph","2002-03-08","2002-04-26",2003,"2003-01-20","2002-11-10","talek",318,0.87,NA,"2002",NA,"high"
"tini",1,"cd","2003-07-27","2004-04-28",-0.23,-0.23,10,10,4,0.577777777777778,284.1214,"m","mp","2003-06-28","2003-07-27",2007,"2007-08-19","2004-04-29","talek",1513,4.15,NA,"2003",NA,"mid"
"tini",2,"postgrad","2004-04-29","2005-01-30",-0.25,-0.25,16,16,52,0.391666666666667,489.8284,"m","mp","2003-06-28","2003-07-27",2007,"2007-08-19","2004-04-29","talek",1513,4.15,NA,"2003",NA,"mid"
"tini",3,"adult","2005-06-28","2006-03-30",-0.13,-0.13,10,10,0,0.444444444444444,203.5313,"m","mp","2003-06-28","2003-07-27",2007,"2007-08-19","2004-04-29","talek",1513,4.15,NA,"2003",NA,"mid"
"tit",1,"cd","1993-09-09","1994-04-21",0.17,0.17,4,4,0,0,35.6065,"m","ot","1993-08-15","1993-09-09",1995,"1995-03-19","1994-04-22","talek",581,1.59,NA,"1993",NA,"mid"
"tit",2,"postgrad","1994-04-22","1994-12-02",0.17,0.17,5,5,2,0.3,57.704,"m","ot","1993-08-15","1993-09-09",1995,"1995-03-19","1994-04-22","talek",581,1.59,NA,"1993",NA,"mid"
"tsa",1,"cd","1999-02-01","1999-09-02",-0.73,-0.73,11,11,130,0.163636363636364,245.1803,"m","par","1998-12-10","1999-02-01",2000,"2001-08-02","1999-09-03","talek",601,2.65,NA,"1998",NA,"low"
"tsa",2,"postgrad","1999-09-03","2000-04-03",-0.92,-0.92,5,5,35,0.3,99.127,"m","par","1998-12-10","1999-02-01",2000,"2001-08-02","1999-09-03","talek",601,2.65,NA,"1998",NA,"low"
"tsa",3,"adult","2000-12-10","2001-07-10",-1,-1,4,4,3,0,105.6667,"m","par","1998-12-10","1999-02-01",2000,"2001-08-02","1999-09-03","talek",601,2.65,NA,"1998",NA,"low"
"tt",1,"cd","1989-10-14","1990-04-18",0.89,0.89,13,13,4,0.371794871794872,312.9717,"m","kb","1989-09-01","1989-10-14",1990,"1990-06-27","1990-04-19","talek",300,0.82,NA,"1989",NA,"high"
"tt",2,"postgrad","1990-04-19","1990-10-22",0.89,0.89,8,8,66,0.178571428571429,204.7775,"m","kb","1989-09-01","1989-10-14",1990,"1990-06-27","1990-04-19","talek",300,0.82,NA,"1989",NA,"high"
"ud",1,"cd","1993-10-25","1994-07-02",-0.33,-0.33,7,7,28,0.428571428571429,120.005,"m","23s","1993-10-04","1993-10-25",1998,"1998-01-07","1994-07-03","talek",1556,4.26,NA,"1993",NA,"mid"
"ud",2,"postgrad","1994-07-03","1995-03-10",-0.48,-0.48,8,8,24,0.321428571428571,133.8614,"m","23s","1993-10-04","1993-10-25",1998,"1998-01-07","1994-07-03","talek",1556,4.26,NA,"1993",NA,"low"
"wash",1,"cd","1996-11-27","1997-06-14",-0.04,-0.04,32,32,458,0.600806451612903,1450.343,"m","nav","1996-10-23","1996-11-27",1997,"1997-08-27","1997-06-15","talek",307,0.84,NA,"1996",NA,"mid"
"wash",2,"postgrad","1997-06-15","1997-12-31",-0.04,-0.04,21,21,112,0.371428571428571,805.0188,"m","nav","1996-10-23","1996-11-27",1997,"1997-08-27","1997-06-15","talek",307,0.84,NA,"1996",NA,"mid"
"whi",1,"cd","2000-04-17","2000-09-08",0.25,0.25,19,19,135,0.257309941520468,703.3932,"m","hg","2000-03-24","2000-04-17",2003,"2003-11-07","2000-09-09","talek",1323,3.62,NA,"2000",NA,"mid"
"whi",2,"postgrad","2000-09-09","2001-01-31",0.18,0.18,4,4,0,0,172.75,"m","hg","2000-03-24","2000-04-17",2003,"2003-11-07","2000-09-09","talek",1323,3.62,NA,"2000",NA,"mid"
"whi",3,"adult","2002-03-24","2002-08-15",-0.07,-0.07,8,8,215,0.107142857142857,232.5227,"m","hg","2000-03-24","2000-04-17",2003,"2003-11-07","2000-09-09","talek",1323,3.62,NA,"2000",NA,"mid"
"who",1,"cd","1991-07-20","1992-03-23",1,1,4,4,40,0,53.2015,"f","bsh","1991-07-07","1991-07-20",2006,"2006-12-21","1992-03-24","talek",5646,15.47,0.0044126917419626,"1991",1.61063248581635,"high"
"who",2,"postgrad","1992-03-24","1992-11-26",1,1,4,4,55,0,70.8385,"f","bsh","1991-07-07","1991-07-20",2006,"2006-12-21","1992-03-24","talek",5646,15.47,0.0044126917419626,"1991",1.61063248581635,"high"
"who",3,"adult","1993-07-07","1994-03-10",1,1,18,18,182,0.313725490196078,191.63,"f","bsh","1991-07-07","1991-07-20",2006,"2006-12-21","1992-03-24","talek",5646,15.47,0.0044126917419626,"1991",1.61063248581635,"high"
"wm",1,"cd","1994-08-01","1995-01-23",0.7,0.7,14,14,196,0.340659340659341,209.1546,"f","jab","1994-07-07","1994-08-01",1995,"1995-03-13","1995-01-24","talek",249,0.68,NA,"1994",NA,"high"
"wm",2,"postgrad","1995-01-24","1995-07-18",0.7,0.7,4,4,0,0.166666666666667,118.1417,"f","jab","1994-07-07","1994-08-01",1995,"1995-03-13","1995-01-24","talek",249,0.68,NA,"1994",NA,"high"
"wr",1,"cd","1994-07-08","1995-01-24",0.78,0.78,7,7,101,0.380952380952381,81.7925,"f","bb","1994-06-22","1994-07-08",2007,"2007-02-25","1995-01-25","talek",4631,12.69,0.00264113568834599,"1994",0.964014526246286,"high"
"wr",2,"postgrad","1995-01-25","1995-08-13",0.78,0.78,18,18,282,0.26797385620915,613.6506,"f","bb","1994-06-22","1994-07-08",2007,"2007-02-25","1995-01-25","talek",4631,12.69,0.00264113568834599,"1994",0.964014526246286,"high"
"wr",3,"adult","1996-06-22","1997-01-07",0.52,0.52,31,31,133,0.513978494623656,1779.4493,"f","bb","1994-06-22","1994-07-08",2007,"2007-02-25","1995-01-25","talek",4631,12.69,0.00264113568834599,"1994",0.964014526246286,"high"
"wy",1,"cd","1990-10-16","1991-05-24",1,1,17,17,218,0.345588235294118,439.5497,"f","bsh","1990-10-05","1990-10-16",1991,"1991-06-24","1991-05-25","talek",262,0.72,NA,"1990",NA,"high"
"yet",1,"cd","1997-07-15","1998-03-17",0.58,0.58,6,6,54,0.466666666666667,177.498,"m","kip","1997-07-09","1997-07-15",2001,"2001-03-13","1998-03-18","talek",1343,3.68,NA,"1997",NA,"high"
"yet",2,"postgrad","1998-03-18","1998-11-18",0.58,0.58,7,7,3,0.523809523809524,135.2867,"m","kip","1997-07-09","1997-07-15",2001,"2001-03-13","1998-03-18","talek",1343,3.68,NA,"1997",NA,"high"
"yet",3,"adult","1999-07-09","2000-03-10",0.75,0.75,5,5,5,0.2,191.9223,"m","kip","1997-07-09","1997-07-15",2001,"2001-03-13","1998-03-18","talek",1343,3.68,NA,"1997",NA,"high"
"yog",1,"cd","2002-01-07","2002-10-10",0.07,0.07,12,12,0,0.333333333333333,747.8849,"f","mp","2001-11-20","2002-01-07",NA,"2012-12-30","2002-10-11","talek",NA,11.12,0.00270061728395062,"2001",0.985725308641975,"mid"
"yog",2,"postgrad","2002-10-11","2003-07-14",-0.23,-0.23,9,9,1362,0.0277777777777778,546.5738,"f","mp","2001-11-20","2002-01-07",NA,"2012-12-30","2002-10-11","talek",NA,11.12,0.00270061728395062,"2001",0.985725308641975,"mid"
"yog",3,"adult","2003-11-20","2004-08-22",-0.23,-0.23,15,15,49,0.4,278.1602,"f","mp","2001-11-20","2002-01-07",NA,"2012-12-30","2002-10-11","talek",NA,11.12,0.00270061728395062,"2001",0.985725308641975,"mid"
"zc",1,"cd","2001-05-20","2001-10-08",0.88,0.88,11,11,275,0.181818181818182,280.9589,"f","ath","2001-03-13","2001-05-20",2005,"2005-05-12","2001-10-09","talek",1525,4.17,0.00216450216450216,"2001",0.79004329004329,"high"
"zc",2,"postgrad","2001-10-09","2002-02-27",0.73,0.73,19,19,541,0.257309941520468,416.7363,"f","ath","2001-03-13","2001-05-20",2005,"2005-05-12","2001-10-09","talek",1525,4.17,0.00216450216450216,"2001",0.79004329004329,"high"
"zc",3,"adult","2003-03-13","2003-08-01",0.54,0.54,14,14,113,0.395604395604396,154.3033,"f","ath","2001-03-13","2001-05-20",2005,"2005-05-12","2001-10-09","talek",1525,4.17,0.00216450216450216,"2001",0.79004329004329,"high"
"zim",1,"cd","1999-01-07","1999-08-03",-0.18,-0.18,10,10,31,0.333333333333333,226.7213,"f","cr","1998-11-29","1999-01-07",2002,"2002-12-12","1999-08-04","talek",1474,4.04,NA,"1998",NA,"mid"
"zim",2,"postgrad","1999-08-04","2000-02-28",-0.67,-0.67,9,9,16,0.0555555555555556,249.7488,"f","cr","1998-11-29","1999-01-07",2002,"2002-12-12","1999-08-04","talek",1474,4.04,NA,"1998",NA,"low"
"zim",3,"adult","2000-11-29","2001-06-24",-0.76,-0.76,18,18,84,0.228758169934641,573.0359,"f","cr","1998-11-29","1999-01-07",2002,"2002-12-12","1999-08-04","talek",1474,4.04,NA,"1998",NA,"low"
"zor",1,"cd","1989-08-12","1990-04-15",-0.56,-0.56,22,22,51,0.350649350649351,302.5972,"f","23s","1989-07-17","1989-08-12",1990,"1990-05-01","1990-04-16","talek",288,0.79,NA,"1989",NA,"low"
"zulu",1,"cd","1994-05-19","1995-03-01",0.33,0.33,18,18,16,0.366013071895425,371.9379,"m","pt","1994-05-01","1994-05-19",1997,"1997-08-31","1995-03-02","talek",1218,3.34,NA,"1994",NA,"high"
"zulu",2,"postgrad","1995-03-02","1995-12-13",0.33,0.33,12,12,14,0.257575757575758,203.2452,"m","pt","1994-05-01","1994-05-19",1997,"1997-08-31","1995-03-02","talek",1218,3.34,NA,"1994",NA,"high"
"zulu",3,"adult","1996-05-01","1997-02-10",0.33,0.33,16,16,20,0.533333333333333,854.5133,"m","pt","1994-05-01","1994-05-19",1997,"1997-08-31","1995-03-02","talek",1218,3.34,NA,"1994",NA,"high"
